Row,50,size,2
-73.5, -85.736515, 3.0
-73.5, -82.272413, 3.0
-73.5, -78.808312, 3.0
-73.5, -75.34421, 4.0
-73.5, -71.880109, 4.0
-73.5, -68.416007, 4.0
-73.5, -64.951905, 4.0
-73.5, -61.487804, 4.0
-73.5, -58.023702, 4.0
-73.5, -54.5596, 3.0
-73.5, -51.095499, 3.0
-73.5, -47.631397, 3.0
-73.5, -44.167296, 3.0
-73.5, -40.703194, 3.0
-73.5, -37.239092, 3.0
-73.5, -33.774991, 2.0
-73.5, -30.310889, 2.0
-73.5, -26.846788, 2.0
-73.5, -23.382686, 2.0
-73.5, -19.918584, 2.0
-73.5, -16.454483, 2.0
-73.5, -12.990381, 1.0
-73.5, -9.526279, 1.0
-73.5, -6.062178, 1.0
-73.5, -2.598076, 1.0
-73.5, 0.866025, 1.0
-73.5, 4.330127, 2.0
-73.5, 7.794229, 2.0
-73.5, 11.25833, 2.0
-73.5, 14.722432, 2.0
-73.5, 18.186533, 2.0
-73.5, 21.650635, 2.0
-73.5, 25.114737, 2.0
-73.5, 28.578838, 2.0
-73.5, 32.04294, 2.0
-73.5, 35.507042, 2.0
-73.5, 38.971143, 2.0
-73.5, 42.435245, 1.0
-73.5, 45.899346, 1.0
-73.5, 49.363448, 1.0
-73.5, 52.82755, 1.0
-73.5, 56.291651, 1.0
-73.5, 59.755753, 0.0
-73.5, 63.219854, 0.0
-73.5, 66.683956, 0.0
-73.5, 70.148058, 0.0
-73.5, 73.612159, 0.0
-73.5, 77.076261, 0.0
-73.5, 80.540363, 0.0
-73.5, 84.004464, 0.0
-70.5, -84.004464, 3.0
-70.5, -80.540363, 4.0
-70.5, -77.076261, 4.0
-70.5, -73.612159, 4.0
-70.5, -70.148058, 4.0
-70.5, -66.683956, 4.0
-70.5, -63.219854, 4.0
-70.5, -59.755753, 4.0
-70.5, -56.291651, 4.0
-70.5, -52.82755, 4.0
-70.5, -49.363448, 3.0
-70.5, -45.899346, 3.0
-70.5, -42.435245, 3.0
-70.5, -38.971143, 3.0
-70.5, -35.507042, 3.0
-70.5, -32.04294, 2.0
-70.5, -28.578838, 2.0
-70.5, -25.114737, 2.0
-70.5, -21.650635, 2.0
-70.5, -18.186533, 2.0
-70.5, -14.722432, 2.0
-70.5, -11.25833, 2.0
-70.5, -7.794229, 2.0
-70.5, -4.330127, 2.0
-70.5, -0.866025, 2.0
-70.5, 2.598076, 2.0
-70.5, 6.062178, 2.0
-70.5, 9.526279, 2.0
-70.5, 12.990381, 2.0
-70.5, 16.454483, 3.0
-70.5, 19.918584, 3.0
-70.5, 23.382686, 3.0
-70.5, 26.846788, 3.0
-70.5, 30.310889, 3.0
-70.5, 33.774991, 3.0
-70.5, 37.239092, 2.0
-70.5, 40.703194, 2.0
-70.5, 44.167296, 2.0
-70.5, 47.631397, 1.0
-70.5, 51.095499, 1.0
-70.5, 54.5596, 1.0
-70.5, 58.023702, 1.0
-70.5, 61.487804, 0.0
-70.5, 64.951905, 0.0
-70.5, 68.416007, 0.0
-70.5, 71.880109, 0.0
-70.5, 75.34421, 0.0
-70.5, 78.808312, 0.0
-70.5, 82.272413, 0.0
-70.5, 85.736515, 0.0
-67.5, -85.736515, 4.0
-67.5, -82.272413, 4.0
-67.5, -78.808312, 4.0
-67.5, -75.34421, 4.0
-67.5, -71.880109, 4.0
-67.5, -68.416007, 4.0
-67.5, -64.951905, 4.0
-67.5, -61.487804, 4.0
-67.5, -58.023702, 4.0
-67.5, -54.5596, 4.0
-67.5, -51.095499, 4.0
-67.5, -47.631397, 4.0
-67.5, -44.167296, 3.0
-67.5, -40.703194, 3.0
-67.5, -37.239092, 3.0
-67.5, -33.774991, 3.0
-67.5, -30.310889, 2.0
-67.5, -26.846788, 2.0
-67.5, -23.382686, 2.0
-67.5, -19.918584, 2.0
-67.5, -16.454483, 2.0
-67.5, -12.990381, 2.0
-67.5, -9.526279, 2.0
-67.5, -6.062178, 2.0
-67.5, -2.598076, 2.0
-67.5, 0.866025, 2.0
-67.5, 4.330127, 2.0
-67.5, 7.794229, 2.0
-67.5, 11.25833, 3.0
-67.5, 14.722432, 3.0
-67.5, 18.186533, 3.0
-67.5, 21.650635, 4.0
-67.5, 25.114737, 4.0
-67.5, 28.578838, 4.0
-67.5, 32.04294, 3.0
-67.5, 35.507042, 3.0
-67.5, 38.971143, 3.0
-67.5, 42.435245, 2.0
-67.5, 45.899346, 2.0
-67.5, 49.363448, 2.0
-67.5, 52.82755, 1.0
-67.5, 56.291651, 1.0
-67.5, 59.755753, 1.0
-67.5, 63.219854, 0.0
-67.5, 66.683956, 0.0
-67.5, 70.148058, 0.0
-67.5, 73.612159, 0.0
-67.5, 77.076261, 0.0
-67.5, 80.540363, 0.0
-67.5, 84.004464, 0.0
-64.5, -84.004464, 4.0
-64.5, -80.540363, 4.0
-64.5, -77.076261, 4.0
-64.5, -73.612159, 4.0
-64.5, -70.148058, 4.0
-64.5, -66.683956, 4.0
-64.5, -63.219854, 4.0
-64.5, -59.755753, 5.0
-64.5, -56.291651, 4.0
-64.5, -52.82755, 4.0
-64.5, -49.363448, 4.0
-64.5, -45.899346, 4.0
-64.5, -42.435245, 3.0
-64.5, -38.971143, 3.0
-64.5, -35.507042, 3.0
-64.5, -32.04294, 3.0
-64.5, -28.578838, 2.0
-64.5, -25.114737, 2.0
-64.5, -21.650635, 2.0
-64.5, -18.186533, 2.0
-64.5, -14.722432, 2.0
-64.5, -11.25833, 2.0
-64.5, -7.794229, 2.0
-64.5, -4.330127, 2.0
-64.5, -0.866025, 2.0
-64.5, 2.598076, 2.0
-64.5, 6.062178, 3.0
-64.5, 9.526279, 3.0
-64.5, 12.990381, 4.0
-64.5, 16.454483, 4.0
-64.5, 19.918584, 4.0
-64.5, 23.382686, 5.0
-64.5, 26.846788, 5.0
-64.5, 30.310889, 4.0
-64.5, 33.774991, 4.0
-64.5, 37.239092, 4.0
-64.5, 40.703194, 3.0
-64.5, 44.167296, 3.0
-64.5, 47.631397, 2.0
-64.5, 51.095499, 2.0
-64.5, 54.5596, 1.0
-64.5, 58.023702, 1.0
-64.5, 61.487804, 1.0
-64.5, 64.951905, 1.0
-64.5, 68.416007, 0.0
-64.5, 71.880109, 0.0
-64.5, 75.34421, 0.0
-64.5, 78.808312, 0.0
-64.5, 82.272413, 0.0
-64.5, 85.736515, 0.0
-61.5, -85.736515, 4.0
-61.5, -82.272413, 4.0
-61.5, -78.808312, 4.0
-61.5, -75.34421, 3.0
-61.5, -71.880109, 3.0
-61.5, -68.416007, 4.0
-61.5, -64.951905, 5.0
-61.5, -61.487804, 5.0
-61.5, -58.023702, 5.0
-61.5, -54.5596, 5.0
-61.5, -51.095499, 4.0
-61.5, -47.631397, 4.0
-61.5, -44.167296, 4.0
-61.5, -40.703194, 3.0
-61.5, -37.239092, 3.0
-61.5, -33.774991, 3.0
-61.5, -30.310889, 3.0
-61.5, -26.846788, 2.0
-61.5, -23.382686, 2.0
-61.5, -19.918584, 2.0
-61.5, -16.454483, 2.0
-61.5, -12.990381, 2.0
-61.5, -9.526279, 2.0
-61.5, -6.062178, 2.0
-61.5, -2.598076, 2.0
-61.5, 0.866025, 2.0
-61.5, 4.330127, 3.0
-61.5, 7.794229, 3.0
-61.5, 11.25833, 4.0
-61.5, 14.722432, 5.0
-61.5, 18.186533, 5.0
-61.5, 21.650635, 6.0
-61.5, 25.114737, 6.0
-61.5, 28.578838, 6.0
-61.5, 32.04294, 5.0
-61.5, 35.507042, 5.0
-61.5, 38.971143, 4.0
-61.5, 42.435245, 3.0
-61.5, 45.899346, 3.0
-61.5, 49.363448, 2.0
-61.5, 52.82755, 2.0
-61.5, 56.291651, 1.0
-61.5, 59.755753, 1.0
-61.5, 63.219854, 1.0
-61.5, 66.683956, 1.0
-61.5, 70.148058, 0.0
-61.5, 73.612159, 0.0
-61.5, 77.076261, 0.0
-61.5, 80.540363, 0.0
-61.5, 84.004464, 0.0
-58.5, -84.004464, 4.0
-58.5, -80.540363, 4.0
-58.5, -77.076261, 3.0
-58.5, -73.612159, 0.0
-58.5, -70.148058, 3.0
-58.5, -66.683956, 5.0
-58.5, -63.219854, 5.0
-58.5, -59.755753, 5.0
-58.5, -56.291651, 5.0
-58.5, -52.82755, 5.0
-58.5, -49.363448, 4.0
-58.5, -45.899346, 4.0
-58.5, -42.435245, 4.0
-58.5, -38.971143, 3.0
-58.5, -35.507042, 3.0
-58.5, -32.04294, 3.0
-58.5, -28.578838, 3.0
-58.5, -25.114737, 2.0
-58.5, -21.650635, 2.0
-58.5, -18.186533, 2.0
-58.5, -14.722432, 2.0
-58.5, -11.25833, 2.0
-58.5, -7.794229, 2.0
-58.5, -4.330127, 2.0
-58.5, -0.866025, 3.0
-58.5, 2.598076, 3.0
-58.5, 6.062178, 4.0
-58.5, 9.526279, 4.0
-58.5, 12.990381, 5.0
-58.5, 16.454483, 6.0
-58.5, 19.918584, 7.0
-58.5, 23.382686, 7.0
-58.5, 26.846788, 7.0
-58.5, 30.310889, 7.0
-58.5, 33.774991, 6.0
-58.5, 37.239092, 5.0
-58.5, 40.703194, 4.0
-58.5, 44.167296, 4.0
-58.5, 47.631397, 3.0
-58.5, 51.095499, 2.0
-58.5, 54.5596, 2.0
-58.5, 58.023702, 1.0
-58.5, 61.487804, 1.0
-58.5, 64.951905, 1.0
-58.5, 68.416007, 1.0
-58.5, 71.880109, 0.0
-58.5, 75.34421, 0.0
-58.5, 78.808312, 0.0
-58.5, 82.272413, 0.0
-58.5, 85.736515, 0.0
-55.5, -85.736515, 4.0
-55.5, -82.272413, 4.0
-55.5, -78.808312, 4.0
-55.5, -75.34421, 4.0
-55.5, -71.880109, 3.0
-55.5, -68.416007, 5.0
-55.5, -64.951905, 6.0
-55.5, -61.487804, 6.0
-55.5, -58.023702, 6.0
-55.5, -54.5596, 5.0
-55.5, -51.095499, 5.0
-55.5, -47.631397, 4.0
-55.5, -44.167296, 4.0
-55.5, -40.703194, 4.0
-55.5, -37.239092, 3.0
-55.5, -33.774991, 3.0
-55.5, -30.310889, 3.0
-55.5, -26.846788, 2.0
-55.5, -23.382686, 2.0
-55.5, -19.918584, 2.0
-55.5, -16.454483, 2.0
-55.5, -12.990381, 2.0
-55.5, -9.526279, 2.0
-55.5, -6.062178, 2.0
-55.5, -2.598076, 3.0
-55.5, 0.866025, 3.0
-55.5, 4.330127, 4.0
-55.5, 7.794229, 4.0
-55.5, 11.25833, 5.0
-55.5, 14.722432, 6.0
-55.5, 18.186533, 7.0
-55.5, 21.650635, 9.0
-55.5, 25.114737, 9.0
-55.5, 28.578838, 9.0
-55.5, 32.04294, 8.0
-55.5, 35.507042, 7.0
-55.5, 38.971143, 6.0
-55.5, 42.435245, 5.0
-55.5, 45.899346, 4.0
-55.5, 49.363448, 3.0
-55.5, 52.82755, 2.0
-55.5, 56.291651, 2.0
-55.5, 59.755753, 1.0
-55.5, 63.219854, 1.0
-55.5, 66.683956, 1.0
-55.5, 70.148058, 1.0
-55.5, 73.612159, 0.0
-55.5, 77.076261, 0.0
-55.5, 80.540363, 0.0
-55.5, 84.004464, 0.0
-52.5, -84.004464, 5.0
-52.5, -80.540363, 5.0
-52.5, -77.076261, 5.0
-52.5, -73.612159, 5.0
-52.5, -70.148058, 6.0
-52.5, -66.683956, 7.0
-52.5, -63.219854, 7.0
-52.5, -59.755753, 6.0
-52.5, -56.291651, 6.0
-52.5, -52.82755, 5.0
-52.5, -49.363448, 5.0
-52.5, -45.899346, 4.0
-52.5, -42.435245, 4.0
-52.5, -38.971143, 4.0
-52.5, -35.507042, 3.0
-52.5, -32.04294, 3.0
-52.5, -28.578838, 3.0
-52.5, -25.114737, 2.0
-52.5, -21.650635, 2.0
-52.5, -18.186533, 2.0
-52.5, -14.722432, 2.0
-52.5, -11.25833, 2.0
-52.5, -7.794229, 2.0
-52.5, -4.330127, 3.0
-52.5, -0.866025, 3.0
-52.5, 2.598076, 4.0
-52.5, 6.062178, 4.0
-52.5, 9.526279, 5.0
-52.5, 12.990381, 6.0
-52.5, 16.454483, 8.0
-52.5, 19.918584, 10.0
-52.5, 23.382686, 11.0
-52.5, 26.846788, 12.0
-52.5, 30.310889, 11.0
-52.5, 33.774991, 9.0
-52.5, 37.239092, 8.0
-52.5, 40.703194, 6.0
-52.5, 44.167296, 5.0
-52.5, 47.631397, 4.0
-52.5, 51.095499, 3.0
-52.5, 54.5596, 2.0
-52.5, 58.023702, 2.0
-52.5, 61.487804, 1.0
-52.5, 64.951905, 1.0
-52.5, 68.416007, 1.0
-52.5, 71.880109, 1.0
-52.5, 75.34421, 0.0
-52.5, 78.808312, 0.0
-52.5, 82.272413, 0.0
-52.5, 85.736515, 0.0
-49.5, -85.736515, 5.0
-49.5, -82.272413, 5.0
-49.5, -78.808312, 6.0
-49.5, -75.34421, 6.0
-49.5, -71.880109, 7.0
-49.5, -68.416007, 8.0
-49.5, -64.951905, 8.0
-49.5, -61.487804, 7.0
-49.5, -58.023702, 6.0
-49.5, -54.5596, 6.0
-49.5, -51.095499, 5.0
-49.5, -47.631397, 5.0
-49.5, -44.167296, 4.0
-49.5, -40.703194, 4.0
-49.5, -37.239092, 3.0
-49.5, -33.774991, 3.0
-49.5, -30.310889, 3.0
-49.5, -26.846788, 3.0
-49.5, -23.382686, 2.0
-49.5, -19.918584, 2.0
-49.5, -16.454483, 2.0
-49.5, -12.990381, 2.0
-49.5, -9.526279, 2.0
-49.5, -6.062178, 2.0
-49.5, -2.598076, 3.0
-49.5, 0.866025, 3.0
-49.5, 4.330127, 4.0
-49.5, 7.794229, 5.0
-49.5, 11.25833, 6.0
-49.5, 14.722432, 8.0
-49.5, 18.186533, 10.0
-49.5, 21.650635, 13.0
-49.5, 25.114737, 15.0
-49.5, 28.578838, 15.0
-49.5, 32.04294, 12.0
-49.5, 35.507042, 10.0
-49.5, 38.971143, 7.0
-49.5, 42.435245, 6.0
-49.5, 45.899346, 4.0
-49.5, 49.363448, 3.0
-49.5, 52.82755, 3.0
-49.5, 56.291651, 2.0
-49.5, 59.755753, 1.0
-49.5, 63.219854, 1.0
-49.5, 66.683956, 1.0
-49.5, 70.148058, 1.0
-49.5, 73.612159, 1.0
-49.5, 77.076261, 1.0
-49.5, 80.540363, 0.0
-49.5, 84.004464, 1.0
-46.5, -84.004464, 5.0
-46.5, -80.540363, 6.0
-46.5, -77.076261, 6.0
-46.5, -73.612159, 7.0
-46.5, -70.148058, 9.0
-46.5, -66.683956, 9.0
-46.5, -63.219854, 8.0
-46.5, -59.755753, 7.0
-46.5, -56.291651, 6.0
-46.5, -52.82755, 6.0
-46.5, -49.363448, 5.0
-46.5, -45.899346, 4.0
-46.5, -42.435245, 4.0
-46.5, -38.971143, 4.0
-46.5, -35.507042, 3.0
-46.5, -32.04294, 3.0
-46.5, -28.578838, 3.0
-46.5, -25.114737, 2.0
-46.5, -21.650635, 2.0
-46.5, -18.186533, 2.0
-46.5, -14.722432, 2.0
-46.5, -11.25833, 2.0
-46.5, -7.794229, 2.0
-46.5, -4.330127, 3.0
-46.5, -0.866025, 3.0
-46.5, 2.598076, 4.0
-46.5, 6.062178, 5.0
-46.5, 9.526279, 6.0
-46.5, 12.990381, 7.0
-46.5, 16.454483, 10.0
-46.5, 19.918584, 13.0
-46.5, 23.382686, 17.0
-46.5, 26.846788, 22.0
-46.5, 30.310889, 17.0
-46.5, 33.774991, 12.0
-46.5, 37.239092, 9.0
-46.5, 40.703194, 7.0
-46.5, 44.167296, 5.0
-46.5, 47.631397, 4.0
-46.5, 51.095499, 3.0
-46.5, 54.5596, 2.0
-46.5, 58.023702, 2.0
-46.5, 61.487804, 1.0
-46.5, 64.951905, 1.0
-46.5, 68.416007, 1.0
-46.5, 71.880109, 1.0
-46.5, 75.34421, 1.0
-46.5, 78.808312, 1.0
-46.5, 82.272413, 1.0
-46.5, 85.736515, 1.0
-43.5, -85.736515, 5.0
-43.5, -82.272413, 5.0
-43.5, -78.808312, 6.0
-43.5, -75.34421, 7.0
-43.5, -71.880109, 8.0
-43.5, -68.416007, 11.0
-43.5, -64.951905, 9.0
-43.5, -61.487804, 8.0
-43.5, -58.023702, 7.0
-43.5, -54.5596, 6.0
-43.5, -51.095499, 5.0
-43.5, -47.631397, 5.0
-43.5, -44.167296, 4.0
-43.5, -40.703194, 4.0
-43.5, -37.239092, 3.0
-43.5, -33.774991, 3.0
-43.5, -30.310889, 3.0
-43.5, -26.846788, 3.0
-43.5, -23.382686, 2.0
-43.5, -19.918584, 2.0
-43.5, -16.454483, 2.0
-43.5, -12.990381, 2.0
-43.5, -9.526279, 2.0
-43.5, -6.062178, 3.0
-43.5, -2.598076, 3.0
-43.5, 0.866025, 3.0
-43.5, 4.330127, 4.0
-43.5, 7.794229, 5.0
-43.5, 11.25833, 7.0
-43.5, 14.722432, 8.0
-43.5, 18.186533, 11.0
-43.5, 21.650635, 15.0
-43.5, 25.114737, 20.0
-43.5, 28.578838, 19.0
-43.5, 32.04294, 14.0
-43.5, 35.507042, 10.0
-43.5, 38.971143, 8.0
-43.5, 42.435245, 6.0
-43.5, 45.899346, 5.0
-43.5, 49.363448, 3.0
-43.5, 52.82755, 3.0
-43.5, 56.291651, 2.0
-43.5, 59.755753, 2.0
-43.5, 63.219854, 1.0
-43.5, 66.683956, 1.0
-43.5, 70.148058, 1.0
-43.5, 73.612159, 1.0
-43.5, 77.076261, 1.0
-43.5, 80.540363, 1.0
-43.5, 84.004464, 1.0
-40.5, -84.004464, 5.0
-40.5, -80.540363, 6.0
-40.5, -77.076261, 7.0
-40.5, -73.612159, 8.0
-40.5, -70.148058, 9.0
-40.5, -66.683956, 10.0
-40.5, -63.219854, 8.0
-40.5, -59.755753, 7.0
-40.5, -56.291651, 6.0
-40.5, -52.82755, 6.0
-40.5, -49.363448, 5.0
-40.5, -45.899346, 5.0
-40.5, -42.435245, 4.0
-40.5, -38.971143, 4.0
-40.5, -35.507042, 3.0
-40.5, -32.04294, 3.0
-40.5, -28.578838, 3.0
-40.5, -25.114737, 3.0
-40.5, -21.650635, 2.0
-40.5, -18.186533, 2.0
-40.5, -14.722432, 2.0
-40.5, -11.25833, 2.0
-40.5, -7.794229, 2.0
-40.5, -4.330127, 3.0
-40.5, -0.866025, 3.0
-40.5, 2.598076, 4.0
-40.5, 6.062178, 5.0
-40.5, 9.526279, 6.0
-40.5, 12.990381, 7.0
-40.5, 16.454483, 9.0
-40.5, 19.918584, 11.0
-40.5, 23.382686, 14.0
-40.5, 26.846788, 16.0
-40.5, 30.310889, 14.0
-40.5, 33.774991, 11.0
-40.5, 37.239092, 9.0
-40.5, 40.703194, 7.0
-40.5, 44.167296, 5.0
-40.5, 47.631397, 4.0
-40.5, 51.095499, 3.0
-40.5, 54.5596, 2.0
-40.5, 58.023702, 2.0
-40.5, 61.487804, 1.0
-40.5, 64.951905, 1.0
-40.5, 68.416007, 1.0
-40.5, 71.880109, 1.0
-40.5, 75.34421, 1.0
-40.5, 78.808312, 1.0
-40.5, 82.272413, 1.0
-40.5, 85.736515, 1.0
-37.5, -85.736515, 5.0
-37.5, -82.272413, 6.0
-37.5, -78.808312, 6.0
-37.5, -75.34421, 7.0
-37.5, -71.880109, 9.0
-37.5, -68.416007, 11.0
-37.5, -64.951905, 9.0
-37.5, -61.487804, 8.0
-37.5, -58.023702, 7.0
-37.5, -54.5596, 6.0
-37.5, -51.095499, 5.0
-37.5, -47.631397, 5.0
-37.5, -44.167296, 4.0
-37.5, -40.703194, 4.0
-37.5, -37.239092, 4.0
-37.5, -33.774991, 3.0
-37.5, -30.310889, 3.0
-37.5, -26.846788, 3.0
-37.5, -23.382686, 2.0
-37.5, -19.918584, 2.0
-37.5, -16.454483, 2.0
-37.5, -12.990381, 2.0
-37.5, -9.526279, 2.0
-37.5, -6.062178, 2.0
-37.5, -2.598076, 3.0
-37.5, 0.866025, 3.0
-37.5, 4.330127, 4.0
-37.5, 7.794229, 5.0
-37.5, 11.25833, 6.0
-37.5, 14.722432, 7.0
-37.5, 18.186533, 9.0
-37.5, 21.650635, 11.0
-37.5, 25.114737, 12.0
-37.5, 28.578838, 12.0
-37.5, 32.04294, 10.0
-37.5, 35.507042, 8.0
-37.5, 38.971143, 7.0
-37.5, 42.435245, 5.0
-37.5, 45.899346, 4.0
-37.5, 49.363448, 3.0
-37.5, 52.82755, 3.0
-37.5, 56.291651, 2.0
-37.5, 59.755753, 2.0
-37.5, 63.219854, 1.0
-37.5, 66.683956, 1.0
-37.5, 70.148058, 1.0
-37.5, 73.612159, 1.0
-37.5, 77.076261, 1.0
-37.5, 80.540363, 1.0
-37.5, 84.004464, 1.0
-34.5, -84.004464, 5.0
-34.5, -80.540363, 6.0
-34.5, -77.076261, 7.0
-34.5, -73.612159, 8.0
-34.5, -70.148058, 9.0
-34.5, -66.683956, 11.0
-34.5, -63.219854, 9.0
-34.5, -59.755753, 8.0
-34.5, -56.291651, 7.0
-34.5, -52.82755, 6.0
-34.5, -49.363448, 5.0
-34.5, -45.899346, 5.0
-34.5, -42.435245, 4.0
-34.5, -38.971143, 4.0
-34.5, -35.507042, 3.0
-34.5, -32.04294, 3.0
-34.5, -28.578838, 3.0
-34.5, -25.114737, 3.0
-34.5, -21.650635, 2.0
-34.5, -18.186533, 2.0
-34.5, -14.722432, 2.0
-34.5, -11.25833, 2.0
-34.5, -7.794229, 2.0
-34.5, -4.330127, 2.0
-34.5, -0.866025, 3.0
-34.5, 2.598076, 3.0
-34.5, 6.062178, 4.0
-34.5, 9.526279, 5.0
-34.5, 12.990381, 6.0
-34.5, 16.454483, 7.0
-34.5, 19.918584, 8.0
-34.5, 23.382686, 9.0
-34.5, 26.846788, 9.0
-34.5, 30.310889, 9.0
-34.5, 33.774991, 8.0
-34.5, 37.239092, 7.0
-34.5, 40.703194, 5.0
-34.5, 44.167296, 4.0
-34.5, 47.631397, 3.0
-34.5, 51.095499, 3.0
-34.5, 54.5596, 2.0
-34.5, 58.023702, 2.0
-34.5, 61.487804, 1.0
-34.5, 64.951905, 1.0
-34.5, 68.416007, 1.0
-34.5, 71.880109, 1.0
-34.5, 75.34421, 1.0
-34.5, 78.808312, 1.0
-34.5, 82.272413, 1.0
-34.5, 85.736515, 1.0
-31.5, -85.736515, 5.0
-31.5, -82.272413, 6.0
-31.5, -78.808312, 6.0
-31.5, -75.34421, 7.0
-31.5, -71.880109, 9.0
-31.5, -68.416007, 11.0
-31.5, -64.951905, 10.0
-31.5, -61.487804, 8.0
-31.5, -58.023702, 7.0
-31.5, -54.5596, 6.0
-31.5, -51.095499, 6.0
-31.5, -47.631397, 5.0
-31.5, -44.167296, 5.0
-31.5, -40.703194, 4.0
-31.5, -37.239092, 4.0
-31.5, -33.774991, 3.0
-31.5, -30.310889, 3.0
-31.5, -26.846788, 3.0
-31.5, -23.382686, 2.0
-31.5, -19.918584, 2.0
-31.5, -16.454483, 2.0
-31.5, -12.990381, 2.0
-31.5, -9.526279, 2.0
-31.5, -6.062178, 2.0
-31.5, -2.598076, 2.0
-31.5, 0.866025, 3.0
-31.5, 4.330127, 3.0
-31.5, 7.794229, 4.0
-31.5, 11.25833, 5.0
-31.5, 14.722432, 5.0
-31.5, 18.186533, 6.0
-31.5, 21.650635, 7.0
-31.5, 25.114737, 7.0
-31.5, 28.578838, 7.0
-31.5, 32.04294, 7.0
-31.5, 35.507042, 6.0
-31.5, 38.971143, 5.0
-31.5, 42.435245, 4.0
-31.5, 45.899346, 4.0
-31.5, 49.363448, 3.0
-31.5, 52.82755, 2.0
-31.5, 56.291651, 2.0
-31.5, 59.755753, 2.0
-31.5, 63.219854, 1.0
-31.5, 66.683956, 1.0
-31.5, 70.148058, 1.0
-31.5, 73.612159, 1.0
-31.5, 77.076261, 1.0
-31.5, 80.540363, 1.0
-31.5, 84.004464, 1.0
-28.5, -84.004464, 5.0
-28.5, -80.540363, 6.0
-28.5, -77.076261, 7.0
-28.5, -73.612159, 8.0
-28.5, -70.148058, 9.0
-28.5, -66.683956, 13.0
-28.5, -63.219854, 9.0
-28.5, -59.755753, 8.0
-28.5, -56.291651, 7.0
-28.5, -52.82755, 6.0
-28.5, -49.363448, 5.0
-28.5, -45.899346, 5.0
-28.5, -42.435245, 4.0
-28.5, -38.971143, 4.0
-28.5, -35.507042, 4.0
-28.5, -32.04294, 3.0
-28.5, -28.578838, 3.0
-28.5, -25.114737, 3.0
-28.5, -21.650635, 2.0
-28.5, -18.186533, 2.0
-28.5, -14.722432, 2.0
-28.5, -11.25833, 2.0
-28.5, -7.794229, 2.0
-28.5, -4.330127, 2.0
-28.5, -0.866025, 2.0
-28.5, 2.598076, 3.0
-28.5, 6.062178, 3.0
-28.5, 9.526279, 4.0
-28.5, 12.990381, 4.0
-28.5, 16.454483, 5.0
-28.5, 19.918584, 5.0
-28.5, 23.382686, 6.0
-28.5, 26.846788, 6.0
-28.5, 30.310889, 6.0
-28.5, 33.774991, 5.0
-28.5, 37.239092, 5.0
-28.5, 40.703194, 4.0
-28.5, 44.167296, 3.0
-28.5, 47.631397, 3.0
-28.5, 51.095499, 2.0
-28.5, 54.5596, 2.0
-28.5, 58.023702, 2.0
-28.5, 61.487804, 1.0
-28.5, 64.951905, 1.0
-28.5, 68.416007, 1.0
-28.5, 71.880109, 1.0
-28.5, 75.34421, 1.0
-28.5, 78.808312, 1.0
-28.5, 82.272413, 1.0
-28.5, 85.736515, 1.0
-25.5, -85.736515, 5.0
-25.5, -82.272413, 6.0
-25.5, -78.808312, 6.0
-25.5, -75.34421, 7.0
-25.5, -71.880109, 9.0
-25.5, -68.416007, 10.0
-25.5, -64.951905, 11.0
-25.5, -61.487804, 9.0
-25.5, -58.023702, 8.0
-25.5, -54.5596, 7.0
-25.5, -51.095499, 6.0
-25.5, -47.631397, 5.0
-25.5, -44.167296, 5.0
-25.5, -40.703194, 4.0
-25.5, -37.239092, 4.0
-25.5, -33.774991, 3.0
-25.5, -30.310889, 3.0
-25.5, -26.846788, 3.0
-25.5, -23.382686, 2.0
-25.5, -19.918584, 2.0
-25.5, -16.454483, 2.0
-25.5, -12.990381, 2.0
-25.5, -9.526279, 2.0
-25.5, -6.062178, 2.0
-25.5, -2.598076, 2.0
-25.5, 0.866025, 2.0
-25.5, 4.330127, 3.0
-25.5, 7.794229, 3.0
-25.5, 11.25833, 3.0
-25.5, 14.722432, 4.0
-25.5, 18.186533, 4.0
-25.5, 21.650635, 4.0
-25.5, 25.114737, 5.0
-25.5, 28.578838, 5.0
-25.5, 32.04294, 4.0
-25.5, 35.507042, 4.0
-25.5, 38.971143, 4.0
-25.5, 42.435245, 3.0
-25.5, 45.899346, 3.0
-25.5, 49.363448, 2.0
-25.5, 52.82755, 2.0
-25.5, 56.291651, 2.0
-25.5, 59.755753, 1.0
-25.5, 63.219854, 1.0
-25.5, 66.683956, 1.0
-25.5, 70.148058, 1.0
-25.5, 73.612159, 1.0
-25.5, 77.076261, 1.0
-25.5, 80.540363, 1.0
-25.5, 84.004464, 1.0
-22.5, -84.004464, 5.0
-22.5, -80.540363, 6.0
-22.5, -77.076261, 7.0
-22.5, -73.612159, 8.0
-22.5, -70.148058, 9.0
-22.5, -66.683956, 12.0
-22.5, -63.219854, 10.0
-22.5, -59.755753, 8.0
-22.5, -56.291651, 7.0
-22.5, -52.82755, 6.0
-22.5, -49.363448, 6.0
-22.5, -45.899346, 5.0
-22.5, -42.435245, 5.0
-22.5, -38.971143, 4.0
-22.5, -35.507042, 4.0
-22.5, -32.04294, 3.0
-22.5, -28.578838, 3.0
-22.5, -25.114737, 3.0
-22.5, -21.650635, 2.0
-22.5, -18.186533, 2.0
-22.5, -14.722432, 2.0
-22.5, -11.25833, 2.0
-22.5, -7.794229, 2.0
-22.5, -4.330127, 2.0
-22.5, -0.866025, 2.0
-22.5, 2.598076, 2.0
-22.5, 6.062178, 2.0
-22.5, 9.526279, 3.0
-22.5, 12.990381, 3.0
-22.5, 16.454483, 3.0
-22.5, 19.918584, 3.0
-22.5, 23.382686, 4.0
-22.5, 26.846788, 4.0
-22.5, 30.310889, 4.0
-22.5, 33.774991, 4.0
-22.5, 37.239092, 3.0
-22.5, 40.703194, 3.0
-22.5, 44.167296, 3.0
-22.5, 47.631397, 2.0
-22.5, 51.095499, 2.0
-22.5, 54.5596, 2.0
-22.5, 58.023702, 1.0
-22.5, 61.487804, 1.0
-22.5, 64.951905, 1.0
-22.5, 68.416007, 1.0
-22.5, 71.880109, 1.0
-22.5, 75.34421, 1.0
-22.5, 78.808312, 1.0
-22.5, 82.272413, 1.0
-22.5, 85.736515, 2.0
-19.5, -85.736515, 5.0
-19.5, -82.272413, 6.0
-19.5, -78.808312, 6.0
-19.5, -75.34421, 7.0
-19.5, -71.880109, 8.0
-19.5, -68.416007, 10.0
-19.5, -64.951905, 12.0
-19.5, -61.487804, 9.0
-19.5, -58.023702, 8.0
-19.5, -54.5596, 7.0
-19.5, -51.095499, 6.0
-19.5, -47.631397, 5.0
-19.5, -44.167296, 5.0
-19.5, -40.703194, 4.0
-19.5, -37.239092, 4.0
-19.5, -33.774991, 3.0
-19.5, -30.310889, 3.0
-19.5, -26.846788, 3.0
-19.5, -23.382686, 2.0
-19.5, -19.918584, 2.0
-19.5, -16.454483, 2.0
-19.5, -12.990381, 2.0
-19.5, -9.526279, 2.0
-19.5, -6.062178, 2.0
-19.5, -2.598076, 2.0
-19.5, 0.866025, 2.0
-19.5, 4.330127, 2.0
-19.5, 7.794229, 2.0
-19.5, 11.25833, 2.0
-19.5, 14.722432, 3.0
-19.5, 18.186533, 3.0
-19.5, 21.650635, 3.0
-19.5, 25.114737, 3.0
-19.5, 28.578838, 3.0
-19.5, 32.04294, 3.0
-19.5, 35.507042, 3.0
-19.5, 38.971143, 3.0
-19.5, 42.435245, 2.0
-19.5, 45.899346, 2.0
-19.5, 49.363448, 2.0
-19.5, 52.82755, 2.0
-19.5, 56.291651, 1.0
-19.5, 59.755753, 1.0
-19.5, 63.219854, 1.0
-19.5, 66.683956, 1.0
-19.5, 70.148058, 1.0
-19.5, 73.612159, 1.0
-19.5, 77.076261, 1.0
-19.5, 80.540363, 2.0
-19.5, 84.004464, 2.0
-16.5, -84.004464, 5.0
-16.5, -80.540363, 6.0
-16.5, -77.076261, 7.0
-16.5, -73.612159, 8.0
-16.5, -70.148058, 9.0
-16.5, -66.683956, 11.0
-16.5, -63.219854, 11.0
-16.5, -59.755753, 9.0
-16.5, -56.291651, 8.0
-16.5, -52.82755, 7.0
-16.5, -49.363448, 6.0
-16.5, -45.899346, 5.0
-16.5, -42.435245, 5.0
-16.5, -38.971143, 4.0
-16.5, -35.507042, 4.0
-16.5, -32.04294, 3.0
-16.5, -28.578838, 3.0
-16.5, -25.114737, 3.0
-16.5, -21.650635, 2.0
-16.5, -18.186533, 2.0
-16.5, -14.722432, 2.0
-16.5, -11.25833, 2.0
-16.5, -7.794229, 2.0
-16.5, -4.330127, 2.0
-16.5, -0.866025, 2.0
-16.5, 2.598076, 2.0
-16.5, 6.062178, 2.0
-16.5, 9.526279, 2.0
-16.5, 12.990381, 2.0
-16.5, 16.454483, 2.0
-16.5, 19.918584, 2.0
-16.5, 23.382686, 2.0
-16.5, 26.846788, 2.0
-16.5, 30.310889, 2.0
-16.5, 33.774991, 2.0
-16.5, 37.239092, 2.0
-16.5, 40.703194, 2.0
-16.5, 44.167296, 2.0
-16.5, 47.631397, 2.0
-16.5, 51.095499, 2.0
-16.5, 54.5596, 2.0
-16.5, 58.023702, 1.0
-16.5, 61.487804, 1.0
-16.5, 64.951905, 1.0
-16.5, 68.416007, 1.0
-16.5, 71.880109, 1.0
-16.5, 75.34421, 2.0
-16.5, 78.808312, 2.0
-16.5, 82.272413, 2.0
-16.5, 85.736515, 2.0
-13.5, -85.736515, 5.0
-13.5, -82.272413, 6.0
-13.5, -78.808312, 6.0
-13.5, -75.34421, 7.0
-13.5, -71.880109, 8.0
-13.5, -68.416007, 10.0
-13.5, -64.951905, 14.0
-13.5, -61.487804, 10.0
-13.5, -58.023702, 8.0
-13.5, -54.5596, 7.0
-13.5, -51.095499, 6.0
-13.5, -47.631397, 6.0
-13.5, -44.167296, 5.0
-13.5, -40.703194, 5.0
-13.5, -37.239092, 4.0
-13.5, -33.774991, 4.0
-13.5, -30.310889, 3.0
-13.5, -26.846788, 3.0
-13.5, -23.382686, 2.0
-13.5, -19.918584, 2.0
-13.5, -16.454483, 2.0
-13.5, -12.990381, 2.0
-13.5, -9.526279, 2.0
-13.5, -6.062178, 2.0
-13.5, -2.598076, 1.0
-13.5, 0.866025, 1.0
-13.5, 4.330127, 1.0
-13.5, 7.794229, 1.0
-13.5, 11.25833, 2.0
-13.5, 14.722432, 2.0
-13.5, 18.186533, 2.0
-13.5, 21.650635, 2.0
-13.5, 25.114737, 2.0
-13.5, 28.578838, 2.0
-13.5, 32.04294, 2.0
-13.5, 35.507042, 2.0
-13.5, 38.971143, 2.0
-13.5, 42.435245, 2.0
-13.5, 45.899346, 2.0
-13.5, 49.363448, 2.0
-13.5, 52.82755, 1.0
-13.5, 56.291651, 1.0
-13.5, 59.755753, 1.0
-13.5, 63.219854, 1.0
-13.5, 66.683956, 1.0
-13.5, 70.148058, 2.0
-13.5, 73.612159, 2.0
-13.5, 77.076261, 2.0
-13.5, 80.540363, 2.0
-13.5, 84.004464, 2.0
-10.5, -84.004464, 5.0
-10.5, -80.540363, 6.0
-10.5, -77.076261, 7.0
-10.5, -73.612159, 8.0
-10.5, -70.148058, 9.0
-10.5, -66.683956, 11.0
-10.5, -63.219854, 11.0
-10.5, -59.755753, 9.0
-10.5, -56.291651, 8.0
-10.5, -52.82755, 7.0
-10.5, -49.363448, 6.0
-10.5, -45.899346, 6.0
-10.5, -42.435245, 5.0
-10.5, -38.971143, 4.0
-10.5, -35.507042, 4.0
-10.5, -32.04294, 3.0
-10.5, -28.578838, 3.0
-10.5, -25.114737, 3.0
-10.5, -21.650635, 2.0
-10.5, -18.186533, 2.0
-10.5, -14.722432, 2.0
-10.5, -11.25833, 2.0
-10.5, -7.794229, 1.0
-10.5, -4.330127, 1.0
-10.5, -0.866025, 1.0
-10.5, 2.598076, 1.0
-10.5, 6.062178, 1.0
-10.5, 9.526279, 1.0
-10.5, 12.990381, 1.0
-10.5, 16.454483, 1.0
-10.5, 19.918584, 1.0
-10.5, 23.382686, 2.0
-10.5, 26.846788, 2.0
-10.5, 30.310889, 2.0
-10.5, 33.774991, 2.0
-10.5, 37.239092, 2.0
-10.5, 40.703194, 2.0
-10.5, 44.167296, 2.0
-10.5, 47.631397, 2.0
-10.5, 51.095499, 1.0
-10.5, 54.5596, 1.0
-10.5, 58.023702, 1.0
-10.5, 61.487804, 1.0
-10.5, 64.951905, 2.0
-10.5, 68.416007, 2.0
-10.5, 71.880109, 2.0
-10.5, 75.34421, 2.0
-10.5, 78.808312, 2.0
-10.5, 82.272413, 2.0
-10.5, 85.736515, 2.0
-7.5, -85.736515, 5.0
-7.5, -82.272413, 6.0
-7.5, -78.808312, 6.0
-7.5, -75.34421, 7.0
-7.5, -71.880109, 8.0
-7.5, -68.416007, 10.0
-7.5, -64.951905, 12.0
-7.5, -61.487804, 11.0
-7.5, -58.023702, 9.0
-7.5, -54.5596, 8.0
-7.5, -51.095499, 7.0
-7.5, -47.631397, 6.0
-7.5, -44.167296, 5.0
-7.5, -40.703194, 5.0
-7.5, -37.239092, 4.0
-7.5, -33.774991, 4.0
-7.5, -30.310889, 3.0
-7.5, -26.846788, 3.0
-7.5, -23.382686, 3.0
-7.5, -19.918584, 2.0
-7.5, -16.454483, 2.0
-7.5, -12.990381, 2.0
-7.5, -9.526279, 2.0
-7.5, -6.062178, 1.0
-7.5, -2.598076, 1.0
-7.5, 0.866025, 1.0
-7.5, 4.330127, 1.0
-7.5, 7.794229, 1.0
-7.5, 11.25833, 1.0
-7.5, 14.722432, 1.0
-7.5, 18.186533, 1.0
-7.5, 21.650635, 1.0
-7.5, 25.114737, 1.0
-7.5, 28.578838, 1.0
-7.5, 32.04294, 1.0
-7.5, 35.507042, 1.0
-7.5, 38.971143, 1.0
-7.5, 42.435245, 1.0
-7.5, 45.899346, 1.0
-7.5, 49.363448, 1.0
-7.5, 52.82755, 1.0
-7.5, 56.291651, 1.0
-7.5, 59.755753, 2.0
-7.5, 63.219854, 2.0
-7.5, 66.683956, 2.0
-7.5, 70.148058, 2.0
-7.5, 73.612159, 2.0
-7.5, 77.076261, 2.0
-7.5, 80.540363, 2.0
-7.5, 84.004464, 2.0
-4.5, -84.004464, 5.0
-4.5, -80.540363, 6.0
-4.5, -77.076261, 7.0
-4.5, -73.612159, 8.0
-4.5, -70.148058, 9.0
-4.5, -66.683956, 10.0
-4.5, -63.219854, 13.0
-4.5, -59.755753, 10.0
-4.5, -56.291651, 9.0
-4.5, -52.82755, 7.0
-4.5, -49.363448, 7.0
-4.5, -45.899346, 6.0
-4.5, -42.435245, 5.0
-4.5, -38.971143, 5.0
-4.5, -35.507042, 4.0
-4.5, -32.04294, 4.0
-4.5, -28.578838, 3.0
-4.5, -25.114737, 3.0
-4.5, -21.650635, 2.0
-4.5, -18.186533, 2.0
-4.5, -14.722432, 2.0
-4.5, -11.25833, 2.0
-4.5, -7.794229, 1.0
-4.5, -4.330127, 1.0
-4.5, -0.866025, 1.0
-4.5, 2.598076, 1.0
-4.5, 6.062178, 1.0
-4.5, 9.526279, 1.0
-4.5, 12.990381, 1.0
-4.5, 16.454483, 1.0
-4.5, 19.918584, 1.0
-4.5, 23.382686, 1.0
-4.5, 26.846788, 1.0
-4.5, 30.310889, 1.0
-4.5, 33.774991, 1.0
-4.5, 37.239092, 1.0
-4.5, 40.703194, 1.0
-4.5, 44.167296, 1.0
-4.5, 47.631397, 1.0
-4.5, 51.095499, 1.0
-4.5, 54.5596, 2.0
-4.5, 58.023702, 2.0
-4.5, 61.487804, 2.0
-4.5, 64.951905, 2.0
-4.5, 68.416007, 2.0
-4.5, 71.880109, 2.0
-4.5, 75.34421, 2.0
-4.5, 78.808312, 2.0
-4.5, 82.272413, 3.0
-4.5, 85.736515, 3.0
-1.5, -85.736515, 5.0
-1.5, -82.272413, 6.0
-1.5, -78.808312, 6.0
-1.5, -75.34421, 7.0
-1.5, -71.880109, 8.0
-1.5, -68.416007, 9.0
-1.5, -64.951905, 11.0
-1.5, -61.487804, 12.0
-1.5, -58.023702, 10.0
-1.5, -54.5596, 8.0
-1.5, -51.095499, 7.0
-1.5, -47.631397, 6.0
-1.5, -44.167296, 6.0
-1.5, -40.703194, 5.0
-1.5, -37.239092, 4.0
-1.5, -33.774991, 4.0
-1.5, -30.310889, 3.0
-1.5, -26.846788, 3.0
-1.5, -23.382686, 3.0
-1.5, -19.918584, 2.0
-1.5, -16.454483, 2.0
-1.5, -12.990381, 2.0
-1.5, -9.526279, 2.0
-1.5, -6.062178, 1.0
-1.5, -2.598076, 1.0
-1.5, 0.866025, 1.0
-1.5, 4.330127, 1.0
-1.5, 7.794229, 1.0
-1.5, 11.25833, 0.0
-1.5, 14.722432, 1.0
-1.5, 18.186533, 1.0
-1.5, 21.650635, 1.0
-1.5, 25.114737, 1.0
-1.5, 28.578838, 1.0
-1.5, 32.04294, 1.0
-1.5, 35.507042, 1.0
-1.5, 38.971143, 1.0
-1.5, 42.435245, 1.0
-1.5, 45.899346, 1.0
-1.5, 49.363448, 1.0
-1.5, 52.82755, 2.0
-1.5, 56.291651, 2.0
-1.5, 59.755753, 2.0
-1.5, 63.219854, 2.0
-1.5, 66.683956, 2.0
-1.5, 70.148058, 2.0
-1.5, 73.612159, 2.0
-1.5, 77.076261, 3.0
-1.5, 80.540363, 3.0
-1.5, 84.004464, 3.0
1.5, -84.004464, 5.0
1.5, -80.540363, 6.0
1.5, -77.076261, 6.0
1.5, -73.612159, 7.0
1.5, -70.148058, 8.0
1.5, -66.683956, 10.0
1.5, -63.219854, 12.0
1.5, -59.755753, 11.0
1.5, -56.291651, 9.0
1.5, -52.82755, 8.0
1.5, -49.363448, 7.0
1.5, -45.899346, 6.0
1.5, -42.435245, 5.0
1.5, -38.971143, 5.0
1.5, -35.507042, 4.0
1.5, -32.04294, 4.0
1.5, -28.578838, 3.0
1.5, -25.114737, 3.0
1.5, -21.650635, 3.0
1.5, -18.186533, 2.0
1.5, -14.722432, 2.0
1.5, -11.25833, 2.0
1.5, -7.794229, 1.0
1.5, -4.330127, 1.0
1.5, -0.866025, 1.0
1.5, 2.598076, 1.0
1.5, 6.062178, 1.0
1.5, 9.526279, 1.0
1.5, 12.990381, 1.0
1.5, 16.454483, 1.0
1.5, 19.918584, 1.0
1.5, 23.382686, 1.0
1.5, 26.846788, 1.0
1.5, 30.310889, 1.0
1.5, 33.774991, 1.0
1.5, 37.239092, 1.0
1.5, 40.703194, 1.0
1.5, 44.167296, 1.0
1.5, 47.631397, 2.0
1.5, 51.095499, 2.0
1.5, 54.5596, 2.0
1.5, 58.023702, 2.0
1.5, 61.487804, 2.0
1.5, 64.951905, 2.0
1.5, 68.416007, 2.0
1.5, 71.880109, 2.0
1.5, 75.34421, 3.0
1.5, 78.808312, 3.0
1.5, 82.272413, 3.0
1.5, 85.736515, 3.0
4.5, -85.736515, 5.0
4.5, -82.272413, 5.0
4.5, -78.808312, 6.0
4.5, -75.34421, 7.0
4.5, -71.880109, 7.0
4.5, -68.416007, 9.0
4.5, -64.951905, 10.0
4.5, -61.487804, 13.0
4.5, -58.023702, 10.0
4.5, -54.5596, 8.0
4.5, -51.095499, 7.0
4.5, -47.631397, 7.0
4.5, -44.167296, 6.0
4.5, -40.703194, 5.0
4.5, -37.239092, 5.0
4.5, -33.774991, 4.0
4.5, -30.310889, 4.0
4.5, -26.846788, 3.0
4.5, -23.382686, 3.0
4.5, -19.918584, 2.0
4.5, -16.454483, 2.0
4.5, -12.990381, 2.0
4.5, -9.526279, 2.0
4.5, -6.062178, 1.0
4.5, -2.598076, 1.0
4.5, 0.866025, 1.0
4.5, 4.330127, 1.0
4.5, 7.794229, 1.0
4.5, 11.25833, 1.0
4.5, 14.722432, 1.0
4.5, 18.186533, 1.0
4.5, 21.650635, 1.0
4.5, 25.114737, 1.0
4.5, 28.578838, 1.0
4.5, 32.04294, 1.0
4.5, 35.507042, 1.0
4.5, 38.971143, 1.0
4.5, 42.435245, 1.0
4.5, 45.899346, 2.0
4.5, 49.363448, 2.0
4.5, 52.82755, 2.0
4.5, 56.291651, 2.0
4.5, 59.755753, 2.0
4.5, 63.219854, 2.0
4.5, 66.683956, 2.0
4.5, 70.148058, 3.0
4.5, 73.612159, 3.0
4.5, 77.076261, 3.0
4.5, 80.540363, 3.0
4.5, 84.004464, 4.0
7.5, -84.004464, 5.0
7.5, -80.540363, 5.0
7.5, -77.076261, 6.0
7.5, -73.612159, 7.0
7.5, -70.148058, 8.0
7.5, -66.683956, 9.0
7.5, -63.219854, 11.0
7.5, -59.755753, 11.0
7.5, -56.291651, 9.0
7.5, -52.82755, 8.0
7.5, -49.363448, 7.0
7.5, -45.899346, 6.0
7.5, -42.435245, 6.0
7.5, -38.971143, 5.0
7.5, -35.507042, 4.0
7.5, -32.04294, 4.0
7.5, -28.578838, 3.0
7.5, -25.114737, 3.0
7.5, -21.650635, 3.0
7.5, -18.186533, 2.0
7.5, -14.722432, 2.0
7.5, -11.25833, 2.0
7.5, -7.794229, 2.0
7.5, -4.330127, 1.0
7.5, -0.866025, 1.0
7.5, 2.598076, 1.0
7.5, 6.062178, 1.0
7.5, 9.526279, 1.0
7.5, 12.990381, 1.0
7.5, 16.454483, 1.0
7.5, 19.918584, 1.0
7.5, 23.382686, 1.0
7.5, 26.846788, 1.0
7.5, 30.310889, 1.0
7.5, 33.774991, 1.0
7.5, 37.239092, 1.0
7.5, 40.703194, 2.0
7.5, 44.167296, 2.0
7.5, 47.631397, 2.0
7.5, 51.095499, 2.0
7.5, 54.5596, 2.0
7.5, 58.023702, 2.0
7.5, 61.487804, 2.0
7.5, 64.951905, 3.0
7.5, 68.416007, 3.0
7.5, 71.880109, 3.0
7.5, 75.34421, 3.0
7.5, 78.808312, 3.0
7.5, 82.272413, 4.0
7.5, 85.736515, 4.0
10.5, -85.736515, 4.0
10.5, -82.272413, 5.0
10.5, -78.808312, 6.0
10.5, -75.34421, 6.0
10.5, -71.880109, 7.0
10.5, -68.416007, 8.0
10.5, -64.951905, 9.0
10.5, -61.487804, 11.0
10.5, -58.023702, 11.0
10.5, -54.5596, 9.0
10.5, -51.095499, 8.0
10.5, -47.631397, 7.0
10.5, -44.167296, 6.0
10.5, -40.703194, 5.0
10.5, -37.239092, 5.0
10.5, -33.774991, 4.0
10.5, -30.310889, 4.0
10.5, -26.846788, 3.0
10.5, -23.382686, 3.0
10.5, -19.918584, 3.0
10.5, -16.454483, 2.0
10.5, -12.990381, 2.0
10.5, -9.526279, 2.0
10.5, -6.062178, 2.0
10.5, -2.598076, 1.0
10.5, 0.866025, 1.0
10.5, 4.330127, 1.0
10.5, 7.794229, 1.0
10.5, 11.25833, 1.0
10.5, 14.722432, 1.0
10.5, 18.186533, 1.0
10.5, 21.650635, 1.0
10.5, 25.114737, 1.0
10.5, 28.578838, 1.0
10.5, 32.04294, 1.0
10.5, 35.507042, 1.0
10.5, 38.971143, 2.0
10.5, 42.435245, 2.0
10.5, 45.899346, 2.0
10.5, 49.363448, 2.0
10.5, 52.82755, 2.0
10.5, 56.291651, 2.0
10.5, 59.755753, 2.0
10.5, 63.219854, 3.0
10.5, 66.683956, 3.0
10.5, 70.148058, 3.0
10.5, 73.612159, 3.0
10.5, 77.076261, 4.0
10.5, 80.540363, 4.0
10.5, 84.004464, 4.0
13.5, -84.004464, 5.0
13.5, -80.540363, 5.0
13.5, -77.076261, 6.0
13.5, -73.612159, 6.0
13.5, -70.148058, 7.0
13.5, -66.683956, 8.0
13.5, -63.219854, 10.0
13.5, -59.755753, 13.0
13.5, -56.291651, 10.0
13.5, -52.82755, 8.0
13.5, -49.363448, 7.0
13.5, -45.899346, 6.0
13.5, -42.435245, 6.0
13.5, -38.971143, 5.0
13.5, -35.507042, 5.0
13.5, -32.04294, 4.0
13.5, -28.578838, 4.0
13.5, -25.114737, 3.0
13.5, -21.650635, 3.0
13.5, -18.186533, 3.0
13.5, -14.722432, 2.0
13.5, -11.25833, 2.0
13.5, -7.794229, 2.0
13.5, -4.330127, 2.0
13.5, -0.866025, 1.0
13.5, 2.598076, 1.0
13.5, 6.062178, 1.0
13.5, 9.526279, 1.0
13.5, 12.990381, 1.0
13.5, 16.454483, 1.0
13.5, 19.918584, 1.0
13.5, 23.382686, 1.0
13.5, 26.846788, 1.0
13.5, 30.310889, 1.0
13.5, 33.774991, 2.0
13.5, 37.239092, 2.0
13.5, 40.703194, 2.0
13.5, 44.167296, 2.0
13.5, 47.631397, 2.0
13.5, 51.095499, 2.0
13.5, 54.5596, 2.0
13.5, 58.023702, 3.0
13.5, 61.487804, 3.0
13.5, 64.951905, 3.0
13.5, 68.416007, 3.0
13.5, 71.880109, 4.0
13.5, 75.34421, 4.0
13.5, 78.808312, 4.0
13.5, 82.272413, 5.0
13.5, 85.736515, 5.0
16.5, -85.736515, 4.0
16.5, -82.272413, 5.0
16.5, -78.808312, 5.0
16.5, -75.34421, 6.0
16.5, -71.880109, 6.0
16.5, -68.416007, 7.0
16.5, -64.951905, 8.0
16.5, -61.487804, 10.0
16.5, -58.023702, 12.0
16.5, -54.5596, 9.0
16.5, -51.095499, 8.0
16.5, -47.631397, 7.0
16.5, -44.167296, 6.0
16.5, -40.703194, 6.0
16.5, -37.239092, 5.0
16.5, -33.774991, 5.0
16.5, -30.310889, 4.0
16.5, -26.846788, 4.0
16.5, -23.382686, 3.0
16.5, -19.918584, 3.0
16.5, -16.454483, 3.0
16.5, -12.990381, 2.0
16.5, -9.526279, 2.0
16.5, -6.062178, 2.0
16.5, -2.598076, 2.0
16.5, 0.866025, 1.0
16.5, 4.330127, 1.0
16.5, 7.794229, 1.0
16.5, 11.25833, 1.0
16.5, 14.722432, 1.0
16.5, 18.186533, 1.0
16.5, 21.650635, 1.0
16.5, 25.114737, 1.0
16.5, 28.578838, 2.0
16.5, 32.04294, 2.0
16.5, 35.507042, 2.0
16.5, 38.971143, 2.0
16.5, 42.435245, 2.0
16.5, 45.899346, 2.0
16.5, 49.363448, 2.0
16.5, 52.82755, 3.0
16.5, 56.291651, 3.0
16.5, 59.755753, 3.0
16.5, 63.219854, 3.0
16.5, 66.683956, 3.0
16.5, 70.148058, 4.0
16.5, 73.612159, 4.0
16.5, 77.076261, 4.0
16.5, 80.540363, 5.0
16.5, 84.004464, 5.0
19.5, -84.004464, 4.0
19.5, -80.540363, 5.0
19.5, -77.076261, 5.0
19.5, -73.612159, 6.0
19.5, -70.148058, 7.0
19.5, -66.683956, 8.0
19.5, -63.219854, 9.0
19.5, -59.755753, 11.0
19.5, -56.291651, 11.0
19.5, -52.82755, 9.0
19.5, -49.363448, 8.0
19.5, -45.899346, 7.0
19.5, -42.435245, 6.0
19.5, -38.971143, 5.0
19.5, -35.507042, 5.0
19.5, -32.04294, 4.0
19.5, -28.578838, 4.0
19.5, -25.114737, 4.0
19.5, -21.650635, 3.0
19.5, -18.186533, 3.0
19.5, -14.722432, 2.0
19.5, -11.25833, 2.0
19.5, -7.794229, 2.0
19.5, -4.330127, 2.0
19.5, -0.866025, 2.0
19.5, 2.598076, 1.0
19.5, 6.062178, 1.0
19.5, 9.526279, 1.0
19.5, 12.990381, 1.0
19.5, 16.454483, 1.0
19.5, 19.918584, 2.0
19.5, 23.382686, 2.0
19.5, 26.846788, 2.0
19.5, 30.310889, 2.0
19.5, 33.774991, 2.0
19.5, 37.239092, 2.0
19.5, 40.703194, 2.0
19.5, 44.167296, 2.0
19.5, 47.631397, 3.0
19.5, 51.095499, 3.0
19.5, 54.5596, 3.0
19.5, 58.023702, 3.0
19.5, 61.487804, 3.0
19.5, 64.951905, 4.0
19.5, 68.416007, 4.0
19.5, 71.880109, 4.0
19.5, 75.34421, 5.0
19.5, 78.808312, 5.0
19.5, 82.272413, 6.0
19.5, 85.736515, 6.0
22.5, -85.736515, 4.0
22.5, -82.272413, 4.0
22.5, -78.808312, 5.0
22.5, -75.34421, 5.0
22.5, -71.880109, 6.0
22.5, -68.416007, 7.0
22.5, -64.951905, 8.0
22.5, -61.487804, 9.0
22.5, -58.023702, 11.0
22.5, -54.5596, 10.0
22.5, -51.095499, 9.0
22.5, -47.631397, 7.0
22.5, -44.167296, 7.0
22.5, -40.703194, 6.0
22.5, -37.239092, 5.0
22.5, -33.774991, 5.0
22.5, -30.310889, 4.0
22.5, -26.846788, 4.0
22.5, -23.382686, 3.0
22.5, -19.918584, 3.0
22.5, -16.454483, 3.0
22.5, -12.990381, 2.0
22.5, -9.526279, 2.0
22.5, -6.062178, 2.0
22.5, -2.598076, 2.0
22.5, 0.866025, 2.0
22.5, 4.330127, 2.0
22.5, 7.794229, 2.0
22.5, 11.25833, 2.0
22.5, 14.722432, 2.0
22.5, 18.186533, 2.0
22.5, 21.650635, 2.0
22.5, 25.114737, 2.0
22.5, 28.578838, 2.0
22.5, 32.04294, 2.0
22.5, 35.507042, 2.0
22.5, 38.971143, 2.0
22.5, 42.435245, 3.0
22.5, 45.899346, 3.0
22.5, 49.363448, 3.0
22.5, 52.82755, 3.0
22.5, 56.291651, 3.0
22.5, 59.755753, 4.0
22.5, 63.219854, 4.0
22.5, 66.683956, 4.0
22.5, 70.148058, 5.0
22.5, 73.612159, 5.0
22.5, 77.076261, 5.0
22.5, 80.540363, 6.0
22.5, 84.004464, 6.0
25.5, -84.004464, 4.0
25.5, -80.540363, 4.0
25.5, -77.076261, 5.0
25.5, -73.612159, 5.0
25.5, -70.148058, 6.0
25.5, -66.683956, 7.0
25.5, -63.219854, 8.0
25.5, -59.755753, 9.0
25.5, -56.291651, 12.0
25.5, -52.82755, 10.0
25.5, -49.363448, 8.0
25.5, -45.899346, 7.0
25.5, -42.435245, 6.0
25.5, -38.971143, 6.0
25.5, -35.507042, 5.0
25.5, -32.04294, 5.0
25.5, -28.578838, 4.0
25.5, -25.114737, 4.0
25.5, -21.650635, 3.0
25.5, -18.186533, 3.0
25.5, -14.722432, 3.0
25.5, -11.25833, 3.0
25.5, -7.794229, 2.0
25.5, -4.330127, 2.0
25.5, -0.866025, 2.0
25.5, 2.598076, 2.0
25.5, 6.062178, 2.0
25.5, 9.526279, 2.0
25.5, 12.990381, 2.0
25.5, 16.454483, 2.0
25.5, 19.918584, 2.0
25.5, 23.382686, 2.0
25.5, 26.846788, 2.0
25.5, 30.310889, 2.0
25.5, 33.774991, 2.0
25.5, 37.239092, 3.0
25.5, 40.703194, 3.0
25.5, 44.167296, 3.0
25.5, 47.631397, 3.0
25.5, 51.095499, 3.0
25.5, 54.5596, 4.0
25.5, 58.023702, 4.0
25.5, 61.487804, 4.0
25.5, 64.951905, 4.0
25.5, 68.416007, 5.0
25.5, 71.880109, 5.0
25.5, 75.34421, 6.0
25.5, 78.808312, 6.0
25.5, 82.272413, 7.0
25.5, 85.736515, 7.0
28.5, -85.736515, 4.0
28.5, -82.272413, 4.0
28.5, -78.808312, 4.0
28.5, -75.34421, 5.0
28.5, -71.880109, 5.0
28.5, -68.416007, 6.0
28.5, -64.951905, 7.0
28.5, -61.487804, 8.0
28.5, -58.023702, 9.0
28.5, -54.5596, 13.0
28.5, -51.095499, 9.0
28.5, -47.631397, 8.0
28.5, -44.167296, 7.0
28.5, -40.703194, 6.0
28.5, -37.239092, 6.0
28.5, -33.774991, 5.0
28.5, -30.310889, 5.0
28.5, -26.846788, 4.0
28.5, -23.382686, 4.0
28.5, -19.918584, 3.0
28.5, -16.454483, 3.0
28.5, -12.990381, 3.0
28.5, -9.526279, 3.0
28.5, -6.062178, 2.0
28.5, -2.598076, 2.0
28.5, 0.866025, 2.0
28.5, 4.330127, 2.0
28.5, 7.794229, 2.0
28.5, 11.25833, 2.0
28.5, 14.722432, 2.0
28.5, 18.186533, 2.0
28.5, 21.650635, 2.0
28.5, 25.114737, 2.0
28.5, 28.578838, 2.0
28.5, 32.04294, 3.0
28.5, 35.507042, 3.0
28.5, 38.971143, 3.0
28.5, 42.435245, 3.0
28.5, 45.899346, 3.0
28.5, 49.363448, 3.0
28.5, 52.82755, 4.0
28.5, 56.291651, 4.0
28.5, 59.755753, 4.0
28.5, 63.219854, 5.0
28.5, 66.683956, 5.0
28.5, 70.148058, 5.0
28.5, 73.612159, 6.0
28.5, 77.076261, 6.0
28.5, 80.540363, 7.0
28.5, 84.004464, 8.0
31.5, -84.004464, 4.0
31.5, -80.540363, 4.0
31.5, -77.076261, 4.0
31.5, -73.612159, 5.0
31.5, -70.148058, 6.0
31.5, -66.683956, 6.0
31.5, -63.219854, 7.0
31.5, -59.755753, 8.0
31.5, -56.291651, 10.0
31.5, -52.82755, 11.0
31.5, -49.363448, 9.0
31.5, -45.899346, 8.0
31.5, -42.435245, 7.0
31.5, -38.971143, 6.0
31.5, -35.507042, 6.0
31.5, -32.04294, 5.0
31.5, -28.578838, 5.0
31.5, -25.114737, 4.0
31.5, -21.650635, 4.0
31.5, -18.186533, 4.0
31.5, -14.722432, 3.0
31.5, -11.25833, 3.0
31.5, -7.794229, 3.0
31.5, -4.330127, 2.0
31.5, -0.866025, 2.0
31.5, 2.598076, 2.0
31.5, 6.062178, 2.0
31.5, 9.526279, 2.0
31.5, 12.990381, 2.0
31.5, 16.454483, 2.0
31.5, 19.918584, 2.0
31.5, 23.382686, 3.0
31.5, 26.846788, 3.0
31.5, 30.310889, 3.0
31.5, 33.774991, 3.0
31.5, 37.239092, 3.0
31.5, 40.703194, 3.0
31.5, 44.167296, 3.0
31.5, 47.631397, 4.0
31.5, 51.095499, 4.0
31.5, 54.5596, 4.0
31.5, 58.023702, 5.0
31.5, 61.487804, 5.0
31.5, 64.951905, 5.0
31.5, 68.416007, 6.0
31.5, 71.880109, 6.0
31.5, 75.34421, 7.0
31.5, 78.808312, 7.0
31.5, 82.272413, 8.0
31.5, 85.736515, 9.0
34.5, -85.736515, 3.0
34.5, -82.272413, 4.0
34.5, -78.808312, 4.0
34.5, -75.34421, 4.0
34.5, -71.880109, 5.0
34.5, -68.416007, 6.0
34.5, -64.951905, 6.0
34.5, -61.487804, 7.0
34.5, -58.023702, 8.0
34.5, -54.5596, 10.0
34.5, -51.095499, 11.0
34.5, -47.631397, 9.0
34.5, -44.167296, 8.0
34.5, -40.703194, 7.0
34.5, -37.239092, 6.0
34.5, -33.774991, 6.0
34.5, -30.310889, 5.0
34.5, -26.846788, 5.0
34.5, -23.382686, 4.0
34.5, -19.918584, 4.0
34.5, -16.454483, 4.0
34.5, -12.990381, 3.0
34.5, -9.526279, 3.0
34.5, -6.062178, 3.0
34.5, -2.598076, 3.0
34.5, 0.866025, 3.0
34.5, 4.330127, 3.0
34.5, 7.794229, 3.0
34.5, 11.25833, 3.0
34.5, 14.722432, 3.0
34.5, 18.186533, 3.0
34.5, 21.650635, 3.0
34.5, 25.114737, 3.0
34.5, 28.578838, 3.0
34.5, 32.04294, 3.0
34.5, 35.507042, 3.0
34.5, 38.971143, 4.0
34.5, 42.435245, 4.0
34.5, 45.899346, 4.0
34.5, 49.363448, 4.0
34.5, 52.82755, 4.0
34.5, 56.291651, 5.0
34.5, 59.755753, 5.0
34.5, 63.219854, 6.0
34.5, 66.683956, 6.0
34.5, 70.148058, 7.0
34.5, 73.612159, 7.0
34.5, 77.076261, 8.0
34.5, 80.540363, 9.0
34.5, 84.004464, 9.0
37.5, -84.004464, 3.0
37.5, -80.540363, 4.0
37.5, -77.076261, 4.0
37.5, -73.612159, 4.0
37.5, -70.148058, 5.0
37.5, -66.683956, 5.0
37.5, -63.219854, 6.0
37.5, -59.755753, 7.0
37.5, -56.291651, 8.0
37.5, -52.82755, 10.0
37.5, -49.363448, 10.0
37.5, -45.899346, 9.0
37.5, -42.435245, 8.0
37.5, -38.971143, 7.0
37.5, -35.507042, 6.0
37.5, -32.04294, 6.0
37.5, -28.578838, 5.0
37.5, -25.114737, 5.0
37.5, -21.650635, 4.0
37.5, -18.186533, 4.0
37.5, -14.722432, 4.0
37.5, -11.25833, 3.0
37.5, -7.794229, 3.0
37.5, -4.330127, 3.0
37.5, -0.866025, 3.0
37.5, 2.598076, 3.0
37.5, 6.062178, 3.0
37.5, 9.526279, 3.0
37.5, 12.990381, 3.0
37.5, 16.454483, 3.0
37.5, 19.918584, 3.0
37.5, 23.382686, 3.0
37.5, 26.846788, 3.0
37.5, 30.310889, 3.0
37.5, 33.774991, 4.0
37.5, 37.239092, 4.0
37.5, 40.703194, 4.0
37.5, 44.167296, 4.0
37.5, 47.631397, 4.0
37.5, 51.095499, 5.0
37.5, 54.5596, 5.0
37.5, 58.023702, 5.0
37.5, 61.487804, 6.0
37.5, 64.951905, 6.0
37.5, 68.416007, 7.0
37.5, 71.880109, 8.0
37.5, 75.34421, 8.0
37.5, 78.808312, 9.0
37.5, 82.272413, 10.0
37.5, 85.736515, 11.0
40.5, -85.736515, 3.0
40.5, -82.272413, 3.0
40.5, -78.808312, 4.0
40.5, -75.34421, 4.0
40.5, -71.880109, 4.0
40.5, -68.416007, 5.0
40.5, -64.951905, 5.0
40.5, -61.487804, 6.0
40.5, -58.023702, 7.0
40.5, -54.5596, 8.0
40.5, -51.095499, 10.0
40.5, -47.631397, 10.0
40.5, -44.167296, 9.0
40.5, -40.703194, 8.0
40.5, -37.239092, 7.0
40.5, -33.774991, 6.0
40.5, -30.310889, 6.0
40.5, -26.846788, 5.0
40.5, -23.382686, 5.0
40.5, -19.918584, 4.0
40.5, -16.454483, 4.0
40.5, -12.990381, 4.0
40.5, -9.526279, 4.0
40.5, -6.062178, 3.0
40.5, -2.598076, 3.0
40.5, 0.866025, 3.0
40.5, 4.330127, 3.0
40.5, 7.794229, 3.0
40.5, 11.25833, 3.0
40.5, 14.722432, 3.0
40.5, 18.186533, 3.0
40.5, 21.650635, 3.0
40.5, 25.114737, 4.0
40.5, 28.578838, 4.0
40.5, 32.04294, 4.0
40.5, 35.507042, 4.0
40.5, 38.971143, 4.0
40.5, 42.435245, 5.0
40.5, 45.899346, 5.0
40.5, 49.363448, 5.0
40.5, 52.82755, 5.0
40.5, 56.291651, 6.0
40.5, 59.755753, 6.0
40.5, 63.219854, 7.0
40.5, 66.683956, 7.0
40.5, 70.148058, 8.0
40.5, 73.612159, 9.0
40.5, 77.076261, 10.0
40.5, 80.540363, 11.0
40.5, 84.004464, 12.0
43.5, -84.004464, 3.0
43.5, -80.540363, 3.0
43.5, -77.076261, 4.0
43.5, -73.612159, 4.0
43.5, -70.148058, 4.0
43.5, -66.683956, 5.0
43.5, -63.219854, 5.0
43.5, -59.755753, 6.0
43.5, -56.291651, 7.0
43.5, -52.82755, 8.0
43.5, -49.363448, 10.0
43.5, -45.899346, 10.0
43.5, -42.435245, 9.0
43.5, -38.971143, 8.0
43.5, -35.507042, 7.0
43.5, -32.04294, 6.0
43.5, -28.578838, 6.0
43.5, -25.114737, 5.0
43.5, -21.650635, 5.0
43.5, -18.186533, 5.0
43.5, -14.722432, 4.0
43.5, -11.25833, 4.0
43.5, -7.794229, 4.0
43.5, -4.330127, 4.0
43.5, -0.866025, 4.0
43.5, 2.598076, 4.0
43.5, 6.062178, 4.0
43.5, 9.526279, 4.0
43.5, 12.990381, 4.0
43.5, 16.454483, 4.0
43.5, 19.918584, 4.0
43.5, 23.382686, 4.0
43.5, 26.846788, 4.0
43.5, 30.310889, 4.0
43.5, 33.774991, 4.0
43.5, 37.239092, 5.0
43.5, 40.703194, 5.0
43.5, 44.167296, 5.0
43.5, 47.631397, 5.0
43.5, 51.095499, 6.0
43.5, 54.5596, 6.0
43.5, 58.023702, 7.0
43.5, 61.487804, 7.0
43.5, 64.951905, 8.0
43.5, 68.416007, 9.0
43.5, 71.880109, 9.0
43.5, 75.34421, 10.0
43.5, 78.808312, 12.0
43.5, 82.272413, 14.0
43.5, 85.736515, 16.0
46.5, -85.736515, 3.0
46.5, -82.272413, 3.0
46.5, -78.808312, 3.0
46.5, -75.34421, 4.0
46.5, -71.880109, 4.0
46.5, -68.416007, 4.0
46.5, -64.951905, 4.0
46.5, -61.487804, 5.0
46.5, -58.023702, 5.0
46.5, -54.5596, 6.0
46.5, -51.095499, 8.0
46.5, -47.631397, 10.0
46.5, -44.167296, 10.0
46.5, -40.703194, 9.0
46.5, -37.239092, 8.0
46.5, -33.774991, 7.0
46.5, -30.310889, 6.0
46.5, -26.846788, 6.0
46.5, -23.382686, 5.0
46.5, -19.918584, 5.0
46.5, -16.454483, 5.0
46.5, -12.990381, 5.0
46.5, -9.526279, 4.0
46.5, -6.062178, 4.0
46.5, -2.598076, 4.0
46.5, 0.866025, 4.0
46.5, 4.330127, 4.0
46.5, 7.794229, 4.0
46.5, 11.25833, 4.0
46.5, 14.722432, 4.0
46.5, 18.186533, 4.0
46.5, 21.650635, 4.0
46.5, 25.114737, 4.0
46.5, 28.578838, 5.0
46.5, 32.04294, 5.0
46.5, 35.507042, 5.0
46.5, 38.971143, 5.0
46.5, 42.435245, 6.0
46.5, 45.899346, 6.0
46.5, 49.363448, 6.0
46.5, 52.82755, 7.0
46.5, 56.291651, 7.0
46.5, 59.755753, 8.0
46.5, 63.219854, 8.0
46.5, 66.683956, 9.0
46.5, 70.148058, 10.0
46.5, 73.612159, 11.0
46.5, 77.076261, 13.0
46.5, 80.540363, 17.0
46.5, 84.004464, 14.0
49.5, -84.004464, 3.0
49.5, -80.540363, 3.0
49.5, -77.076261, 3.0
49.5, -73.612159, 3.0
49.5, -70.148058, 4.0
49.5, -66.683956, 4.0
49.5, -63.219854, 4.0
49.5, -59.755753, 4.0
49.5, -56.291651, 5.0
49.5, -52.82755, 6.0
49.5, -49.363448, 8.0
49.5, -45.899346, 10.0
49.5, -42.435245, 11.0
49.5, -38.971143, 9.0
49.5, -35.507042, 8.0
49.5, -32.04294, 7.0
49.5, -28.578838, 7.0
49.5, -25.114737, 6.0
49.5, -21.650635, 6.0
49.5, -18.186533, 5.0
49.5, -14.722432, 5.0
49.5, -11.25833, 5.0
49.5, -7.794229, 5.0
49.5, -4.330127, 5.0
49.5, -0.866025, 4.0
49.5, 2.598076, 4.0
49.5, 6.062178, 4.0
49.5, 9.526279, 4.0
49.5, 12.990381, 4.0
49.5, 16.454483, 5.0
49.5, 19.918584, 5.0
49.5, 23.382686, 5.0
49.5, 26.846788, 5.0
49.5, 30.310889, 5.0
49.5, 33.774991, 5.0
49.5, 37.239092, 6.0
49.5, 40.703194, 6.0
49.5, 44.167296, 6.0
49.5, 47.631397, 7.0
49.5, 51.095499, 7.0
49.5, 54.5596, 8.0
49.5, 58.023702, 8.0
49.5, 61.487804, 9.0
49.5, 64.951905, 10.0
49.5, 68.416007, 11.0
49.5, 71.880109, 13.0
49.5, 75.34421, 15.0
49.5, 78.808312, 14.0
49.5, 82.272413, 12.0
49.5, 85.736515, 11.0
52.5, -85.736515, 3.0
52.5, -82.272413, 3.0
52.5, -78.808312, 3.0
52.5, -75.34421, 3.0
52.5, -71.880109, 3.0
52.5, -68.416007, 3.0
52.5, -64.951905, 3.0
52.5, -61.487804, 2.0
52.5, -58.023702, 4.0
52.5, -54.5596, 5.0
52.5, -51.095499, 6.0
52.5, -47.631397, 8.0
52.5, -44.167296, 9.0
52.5, -40.703194, 11.0
52.5, -37.239092, 9.0
52.5, -33.774991, 8.0
52.5, -30.310889, 7.0
52.5, -26.846788, 7.0
52.5, -23.382686, 6.0
52.5, -19.918584, 6.0
52.5, -16.454483, 6.0
52.5, -12.990381, 5.0
52.5, -9.526279, 5.0
52.5, -6.062178, 5.0
52.5, -2.598076, 5.0
52.5, 0.866025, 5.0
52.5, 4.330127, 5.0
52.5, 7.794229, 5.0
52.5, 11.25833, 5.0
52.5, 14.722432, 5.0
52.5, 18.186533, 5.0
52.5, 21.650635, 5.0
52.5, 25.114737, 5.0
52.5, 28.578838, 6.0
52.5, 32.04294, 6.0
52.5, 35.507042, 6.0
52.5, 38.971143, 7.0
52.5, 42.435245, 7.0
52.5, 45.899346, 7.0
52.5, 49.363448, 8.0
52.5, 52.82755, 8.0
52.5, 56.291651, 9.0
52.5, 59.755753, 10.0
52.5, 63.219854, 11.0
52.5, 66.683956, 12.0
52.5, 70.148058, 15.0
52.5, 73.612159, 14.0
52.5, 77.076261, 12.0
52.5, 80.540363, 11.0
52.5, 84.004464, 11.0
55.5, -84.004464, 3.0
55.5, -80.540363, 3.0
55.5, -77.076261, 3.0
55.5, -73.612159, 3.0
55.5, -70.148058, 3.0
55.5, -66.683956, 3.0
55.5, -63.219854, 1.0
55.5, -59.755753, 2.0
55.5, -56.291651, 4.0
55.5, -52.82755, 5.0
55.5, -49.363448, 6.0
55.5, -45.899346, 8.0
55.5, -42.435245, 9.0
55.5, -38.971143, 13.0
55.5, -35.507042, 10.0
55.5, -32.04294, 9.0
55.5, -28.578838, 8.0
55.5, -25.114737, 7.0
55.5, -21.650635, 7.0
55.5, -18.186533, 6.0
55.5, -14.722432, 6.0
55.5, -11.25833, 6.0
55.5, -7.794229, 6.0
55.5, -4.330127, 6.0
55.5, -0.866025, 6.0
55.5, 2.598076, 6.0
55.5, 6.062178, 6.0
55.5, 9.526279, 6.0
55.5, 12.990381, 6.0
55.5, 16.454483, 6.0
55.5, 19.918584, 6.0
55.5, 23.382686, 6.0
55.5, 26.846788, 6.0
55.5, 30.310889, 7.0
55.5, 33.774991, 7.0
55.5, 37.239092, 7.0
55.5, 40.703194, 8.0
55.5, 44.167296, 8.0
55.5, 47.631397, 9.0
55.5, 51.095499, 9.0
55.5, 54.5596, 10.0
55.5, 58.023702, 11.0
55.5, 61.487804, 12.0
55.5, 64.951905, 14.0
55.5, 68.416007, 14.0
55.5, 71.880109, 12.0
55.5, 75.34421, 11.0
55.5, 78.808312, 11.0
55.5, 82.272413, 10.0
55.5, 85.736515, 9.0
58.5, -85.736515, 2.0
58.5, -82.272413, 3.0
58.5, -78.808312, 3.0
58.5, -75.34421, 3.0
58.5, -71.880109, 3.0
58.5, -68.416007, 3.0
58.5, -64.951905, 3.0
58.5, -61.487804, 2.0
58.5, -58.023702, 3.0
58.5, -54.5596, 4.0
58.5, -51.095499, 6.0
58.5, -47.631397, 7.0
58.5, -44.167296, 8.0
58.5, -40.703194, 9.0
58.5, -37.239092, 11.0
58.5, -33.774991, 10.0
58.5, -30.310889, 9.0
58.5, -26.846788, 8.0
58.5, -23.382686, 8.0
58.5, -19.918584, 7.0
58.5, -16.454483, 7.0
58.5, -12.990381, 7.0
58.5, -9.526279, 6.0
58.5, -6.062178, 6.0
58.5, -2.598076, 6.0
58.5, 0.866025, 6.0
58.5, 4.330127, 6.0
58.5, 7.794229, 6.0
58.5, 11.25833, 6.0
58.5, 14.722432, 6.0
58.5, 18.186533, 7.0
58.5, 21.650635, 7.0
58.5, 25.114737, 7.0
58.5, 28.578838, 7.0
58.5, 32.04294, 8.0
58.5, 35.507042, 8.0
58.5, 38.971143, 8.0
58.5, 42.435245, 9.0
58.5, 45.899346, 9.0
58.5, 49.363448, 10.0
58.5, 52.82755, 11.0
58.5, 56.291651, 12.0
58.5, 59.755753, 14.0
58.5, 63.219854, 14.0
58.5, 66.683956, 12.0
58.5, 70.148058, 11.0
58.5, 73.612159, 11.0
58.5, 77.076261, 10.0
58.5, 80.540363, 9.0
58.5, 84.004464, 9.0
61.5, -84.004464, 2.0
61.5, -80.540363, 3.0
61.5, -77.076261, 3.0
61.5, -73.612159, 3.0
61.5, -70.148058, 3.0
61.5, -66.683956, 3.0
61.5, -63.219854, 3.0
61.5, -59.755753, 3.0
61.5, -56.291651, 4.0
61.5, -52.82755, 5.0
61.5, -49.363448, 6.0
61.5, -45.899346, 7.0
61.5, -42.435245, 8.0
61.5, -38.971143, 9.0
61.5, -35.507042, 10.0
61.5, -32.04294, 12.0
61.5, -28.578838, 10.0
61.5, -25.114737, 9.0
61.5, -21.650635, 8.0
61.5, -18.186533, 8.0
61.5, -14.722432, 7.0
61.5, -11.25833, 7.0
61.5, -7.794229, 7.0
61.5, -4.330127, 7.0
61.5, -0.866025, 7.0
61.5, 2.598076, 7.0
61.5, 6.062178, 7.0
61.5, 9.526279, 7.0
61.5, 12.990381, 7.0
61.5, 16.454483, 7.0
61.5, 19.918584, 7.0
61.5, 23.382686, 8.0
61.5, 26.846788, 8.0
61.5, 30.310889, 8.0
61.5, 33.774991, 9.0
61.5, 37.239092, 9.0
61.5, 40.703194, 10.0
61.5, 44.167296, 11.0
61.5, 47.631397, 12.0
61.5, 51.095499, 13.0
61.5, 54.5596, 15.0
61.5, 58.023702, 13.0
61.5, 61.487804, 12.0
61.5, 64.951905, 11.0
61.5, 68.416007, 11.0
61.5, 71.880109, 10.0
61.5, 75.34421, 9.0
61.5, 78.808312, 9.0
61.5, 82.272413, 9.0
61.5, 85.736515, 8.0
64.5, -85.736515, 2.0
64.5, -82.272413, 2.0
64.5, -78.808312, 3.0
64.5, -75.34421, 3.0
64.5, -71.880109, 3.0
64.5, -68.416007, 3.0
64.5, -64.951905, 3.0
64.5, -61.487804, 3.0
64.5, -58.023702, 4.0
64.5, -54.5596, 4.0
64.5, -51.095499, 5.0
64.5, -47.631397, 6.0
64.5, -44.167296, 7.0
64.5, -40.703194, 7.0
64.5, -37.239092, 8.0
64.5, -33.774991, 10.0
64.5, -30.310889, 12.0
64.5, -26.846788, 11.0
64.5, -23.382686, 10.0
64.5, -19.918584, 9.0
64.5, -16.454483, 9.0
64.5, -12.990381, 8.0
64.5, -9.526279, 8.0
64.5, -6.062178, 8.0
64.5, -2.598076, 8.0
64.5, 0.866025, 8.0
64.5, 4.330127, 8.0
64.5, 7.794229, 8.0
64.5, 11.25833, 8.0
64.5, 14.722432, 8.0
64.5, 18.186533, 8.0
64.5, 21.650635, 9.0
64.5, 25.114737, 9.0
64.5, 28.578838, 9.0
64.5, 32.04294, 10.0
64.5, 35.507042, 10.0
64.5, 38.971143, 11.0
64.5, 42.435245, 12.0
64.5, 45.899346, 14.0
64.5, 49.363448, 15.0
64.5, 52.82755, 13.0
64.5, 56.291651, 12.0
64.5, 59.755753, 11.0
64.5, 63.219854, 10.0
64.5, 66.683956, 10.0
64.5, 70.148058, 9.0
64.5, 73.612159, 9.0
64.5, 77.076261, 8.0
64.5, 80.540363, 8.0
64.5, 84.004464, 8.0
67.5, -84.004464, 2.0
67.5, -80.540363, 2.0
67.5, -77.076261, 3.0
67.5, -73.612159, 3.0
67.5, -70.148058, 3.0
67.5, -66.683956, 3.0
67.5, -63.219854, 3.0
67.5, -59.755753, 4.0
67.5, -56.291651, 4.0
67.5, -52.82755, 5.0
67.5, -49.363448, 5.0
67.5, -45.899346, 6.0
67.5, -42.435245, 7.0
67.5, -38.971143, 7.0
67.5, -35.507042, 8.0
67.5, -32.04294, 9.0
67.5, -28.578838, 10.0
67.5, -25.114737, 13.0
67.5, -21.650635, 11.0
67.5, -18.186533, 10.0
67.5, -14.722432, 10.0
67.5, -11.25833, 9.0
67.5, -7.794229, 9.0
67.5, -4.330127, 9.0
67.5, -0.866025, 9.0
67.5, 2.598076, 9.0
67.5, 6.062178, 9.0
67.5, 9.526279, 9.0
67.5, 12.990381, 9.0
67.5, 16.454483, 10.0
67.5, 19.918584, 10.0
67.5, 23.382686, 10.0
67.5, 26.846788, 11.0
67.5, 30.310889, 11.0
67.5, 33.774991, 12.0
67.5, 37.239092, 13.0
67.5, 40.703194, 16.0
67.5, 44.167296, 13.0
67.5, 47.631397, 12.0
67.5, 51.095499, 12.0
67.5, 54.5596, 11.0
67.5, 58.023702, 10.0
67.5, 61.487804, 10.0
67.5, 64.951905, 9.0
67.5, 68.416007, 9.0
67.5, 71.880109, 8.0
67.5, 75.34421, 8.0
67.5, 78.808312, 8.0
67.5, 82.272413, 7.0
67.5, 85.736515, 7.0
70.5, -85.736515, 2.0
70.5, -82.272413, 2.0
70.5, -78.808312, 2.0
70.5, -75.34421, 3.0
70.5, -71.880109, 3.0
70.5, -68.416007, 3.0
70.5, -64.951905, 3.0
70.5, -61.487804, 3.0
70.5, -58.023702, 4.0
70.5, -54.5596, 4.0
70.5, -51.095499, 5.0
70.5, -47.631397, 5.0
70.5, -44.167296, 6.0
70.5, -40.703194, 6.0
70.5, -37.239092, 7.0
70.5, -33.774991, 8.0
70.5, -30.310889, 9.0
70.5, -26.846788, 10.0
70.5, -23.382686, 11.0
70.5, -19.918584, 12.0
70.5, -16.454483, 12.0
70.5, -12.990381, 11.0
70.5, -9.526279, 11.0
70.5, -6.062178, 10.0
70.5, -2.598076, 10.0
70.5, 0.866025, 10.0
70.5, 4.330127, 10.0
70.5, 7.794229, 11.0
70.5, 11.25833, 11.0
70.5, 14.722432, 11.0
70.5, 18.186533, 11.0
70.5, 21.650635, 12.0
70.5, 25.114737, 13.0
70.5, 28.578838, 14.0
70.5, 32.04294, 16.0
70.5, 35.507042, 14.0
70.5, 38.971143, 13.0
70.5, 42.435245, 12.0
70.5, 45.899346, 11.0
70.5, 49.363448, 11.0
70.5, 52.82755, 10.0
70.5, 56.291651, 10.0
70.5, 59.755753, 9.0
70.5, 63.219854, 9.0
70.5, 66.683956, 8.0
70.5, 70.148058, 8.0
70.5, 73.612159, 8.0
70.5, 77.076261, 7.0
70.5, 80.540363, 7.0
70.5, 84.004464, 7.0
73.5, -84.004464, 2.0
73.5, -80.540363, 2.0
73.5, -77.076261, 2.0
73.5, -73.612159, 3.0
73.5, -70.148058, 3.0
73.5, -66.683956, 3.0
73.5, -63.219854, 3.0
73.5, -59.755753, 4.0
73.5, -56.291651, 4.0
73.5, -52.82755, 4.0
73.5, -49.363448, 5.0
73.5, -45.899346, 5.0
73.5, -42.435245, 6.0
73.5, -38.971143, 6.0
73.5, -35.507042, 7.0
73.5, -32.04294, 7.0
73.5, -28.578838, 8.0
73.5, -25.114737, 9.0
73.5, -21.650635, 10.0
73.5, -18.186533, 10.0
73.5, -14.722432, 11.0
73.5, -11.25833, 13.0
73.5, -7.794229, 13.0
73.5, -4.330127, 13.0
73.5, -0.866025, 12.0
73.5, 2.598076, 12.0
73.5, 6.062178, 13.0
73.5, 9.526279, 13.0
73.5, 12.990381, 14.0
73.5, 16.454483, 14.0
73.5, 19.918584, 15.0
73.5, 23.382686, 14.0
73.5, 26.846788, 13.0
73.5, 30.310889, 12.0
73.5, 33.774991, 12.0
73.5, 37.239092, 11.0
73.5, 40.703194, 11.0
73.5, 44.167296, 10.0
73.5, 47.631397, 10.0
73.5, 51.095499, 9.0
73.5, 54.5596, 9.0
73.5, 58.023702, 9.0
73.5, 61.487804, 8.0
73.5, 64.951905, 8.0
73.5, 68.416007, 8.0
73.5, 71.880109, 7.0
73.5, 75.34421, 7.0
73.5, 78.808312, 7.0
73.5, 82.272413, 6.0
73.5, 85.736515, 6.0
