Row,50,size,2
-73.5, -85.736515, 1.050451
-73.5, -82.272413, 1.004605
-73.5, -78.808312, 0.962057
-73.5, -75.34421, 0.923261
-73.5, -71.880109, 0.888709
-73.5, -68.416007, 0.858913
-73.5, -64.951905, 0.834385
-73.5, -61.487804, 0.815597
-73.5, -58.023702, 0.802955
-73.5, -54.5596, 0.79675
-73.5, -51.095499, 0.797132
-73.5, -47.631397, 0.804093
-73.5, -44.167296, 0.817463
-73.5, -40.703194, 0.836937
-73.5, -37.239092, 0.862101
-73.5, -33.774991, 0.892473
-73.5, -30.310889, 0.927542
-73.5, -26.846788, 0.966796
-73.5, -23.382686, 1.009749
-73.5, -19.918584, 0.967238
-73.5, -16.454483, 0.904129
-73.5, -12.990381, 0.842547
-73.5, -9.526279, 0.782853
-73.5, -6.062178, 0.725512
-73.5, -2.598076, 0.671128
-73.5, 0.866025, 0.620478
-73.5, 4.330127, 0.574552
-73.5, 7.794229, 0.534568
-73.5, 11.25833, 0.501949
-73.5, 14.722432, 0.478202
-73.5, 18.186533, 0.464692
-73.5, 21.650635, 0.462316
-73.5, 25.114737, 0.471242
-73.5, 28.578838, 0.490855
-73.5, 32.04294, 0.519946
-73.5, 35.507042, 0.557033
-73.5, 38.971143, 0.600635
-73.5, 42.435245, 0.649443
-73.5, 45.899346, 0.702372
-73.5, 49.363448, 0.758559
-73.5, 52.82755, 0.817333
-73.5, 56.291651, 0.878175
-73.5, 59.755753, 0.940683
-73.5, 63.219854, 1.004547
-73.5, 66.683956, 1.069524
-73.5, 70.148058, 1.135422
-73.5, 73.612159, 1.20209
-73.5, 77.076261, 1.269336
-73.5, 80.540363, 1.272188
-73.5, 84.004464, 1.279159
-70.5, -84.004464, 0.97923
-70.5, -80.540363, 0.932708
-70.5, -77.076261, 0.889682
-70.5, -73.612159, 0.850682
-70.5, -70.148058, 0.816284
-70.5, -66.683956, 0.787094
-70.5, -63.219854, 0.763709
-70.5, -59.755753, 0.746673
-70.5, -56.291651, 0.736428
-70.5, -52.82755, 0.733258
-70.5, -49.363448, 0.737255
-70.5, -45.899346, 0.748303
-70.5, -42.435245, 0.766099
-70.5, -38.971143, 0.790186
-70.5, -35.507042, 0.820009
-70.5, -32.04294, 0.85497
-70.5, -28.578838, 0.894464
-70.5, -25.114737, 0.937921
-70.5, -21.650635, 0.971824
-70.5, -18.186533, 0.906131
-70.5, -14.722432, 0.841572
-70.5, -11.25833, 0.778426
-70.5, -7.794229, 0.717069
-70.5, -4.330127, 0.658001
-70.5, -0.866025, 0.601895
-70.5, 2.598076, 0.549661
-70.5, 6.062178, 0.502506
-70.5, 9.526279, 0.461988
-70.5, 12.990381, 0.429988
-70.5, 16.454483, 0.408513
-70.5, 19.918584, 0.399265
-70.5, 23.382686, 0.403085
-70.5, 26.846788, 0.419618
-70.5, 30.310889, 0.447455
-70.5, 33.774991, 0.484654
-70.5, 37.239092, 0.529244
-70.5, 40.703194, 0.579521
-70.5, 44.167296, 0.634134
-70.5, 47.631397, 0.692058
-70.5, 51.095499, 0.752527
-70.5, 54.5596, 0.814977
-70.5, 58.023702, 0.878984
-70.5, 61.487804, 0.944232
-70.5, 64.951905, 1.010482
-70.5, 68.416007, 1.077547
-70.5, 71.880109, 1.145285
-70.5, 75.34421, 1.206618
-70.5, 78.808312, 1.207438
-70.5, 82.272413, 1.21261
-70.5, 85.736515, 1.222079
-67.5, -85.736515, 0.958691
-67.5, -82.272413, 0.908225
-67.5, -78.808312, 0.860926
-67.5, -75.34421, 0.817344
-67.5, -71.880109, 0.778103
-67.5, -68.416007, 0.743891
-67.5, -64.951905, 0.715429
-67.5, -61.487804, 0.693426
-67.5, -58.023702, 0.678511
-67.5, -54.5596, 0.671156
-67.5, -51.095499, 0.67161
-67.5, -47.631397, 0.679857
-67.5, -44.167296, 0.69562
-67.5, -40.703194, 0.718405
-67.5, -37.239092, 0.747569
-67.5, -33.774991, 0.782399
-67.5, -30.310889, 0.822177
-67.5, -26.846788, 0.866219
-67.5, -23.382686, 0.913911
-67.5, -19.918584, 0.913912
-67.5, -16.454483, 0.846838
-67.5, -12.990381, 0.780751
-67.5, -9.526279, 0.715922
-67.5, -6.062178, 0.652728
-67.5, -2.598076, 0.591691
-67.5, 0.866025, 0.533554
-67.5, 4.330127, 0.479371
-67.5, 7.794229, 0.430638
-67.5, 11.25833, 0.389408
-67.5, 14.722432, 0.358279
-67.5, 18.186533, 0.340036
-67.5, 21.650635, 0.336782
-67.5, 25.114737, 0.348934
-67.5, 28.578838, 0.374999
-67.5, 32.04294, 0.412347
-67.5, 35.507042, 0.458226
-67.5, 38.971143, 0.510342
-67.5, 42.435245, 0.566977
-67.5, 45.899346, 0.626907
-67.5, 49.363448, 0.689273
-67.5, 52.82755, 0.753472
-67.5, 56.291651, 0.819071
-67.5, 59.755753, 0.88576
-67.5, 63.219854, 0.953311
-67.5, 66.683956, 1.021551
-67.5, 70.148058, 1.090353
-67.5, 73.612159, 1.145066
-67.5, 77.076261, 1.143629
-67.5, 80.540363, 1.146794
-67.5, 84.004464, 1.154522
-64.5, -84.004464, 0.889009
-64.5, -80.540363, 0.83749
-64.5, -77.076261, 0.78929
-64.5, -73.612159, 0.745053
-64.5, -70.148058, 0.705525
-64.5, -66.683956, 0.671538
-64.5, -63.219854, 0.643969
-64.5, -59.755753, 0.623671
-64.5, -56.291651, 0.611368
-64.5, -52.82755, 0.607546
-64.5, -49.363448, 0.612364
-64.5, -45.899346, 0.625622
-64.5, -42.435245, 0.646802
-64.5, -38.971143, 0.675158
-64.5, -35.507042, 0.709831
-64.5, -32.04294, 0.749945
-64.5, -28.578838, 0.794677
-64.5, -25.114737, 0.843292
-64.5, -21.650635, 0.895158
-64.5, -18.186533, 0.858233
-64.5, -14.722432, 0.789768
-64.5, -11.25833, 0.722106
-64.5, -7.794229, 0.655498
-64.5, -4.330127, 0.590301
-64.5, -0.866025, 0.527037
-64.5, 2.598076, 0.466494
-64.5, 6.062178, 0.40988
-64.5, 9.526279, 0.359058
-64.5, 12.990381, 0.316828
-64.5, 16.454483, 0.287007
-64.5, 19.918584, 0.273683
-64.5, 23.382686, 0.279227
-64.5, 26.846788, 0.302604
-64.5, 30.310889, 0.340156
-64.5, 33.774991, 0.387788
-64.5, 37.239092, 0.442255
-64.5, 40.703194, 0.501333
-64.5, 44.167296, 0.563575
-64.5, 47.631397, 0.62804
-64.5, 51.095499, 0.694109
-64.5, 54.5596, 0.761365
-64.5, 58.023702, 0.82952
-64.5, 61.487804, 0.898368
-64.5, 64.951905, 0.967762
-64.5, 68.416007, 1.037592
-64.5, 71.880109, 1.084878
-64.5, 75.34421, 1.080928
-64.5, 78.808312, 1.081844
-64.5, 82.272413, 1.087614
-64.5, 85.736515, 1.09816
-61.5, -85.736515, 0.875407
-61.5, -82.272413, 0.819831
-61.5, -78.808312, 0.767101
-61.5, -75.34421, 0.717844
-61.5, -71.880109, 0.672825
-61.5, -68.416007, 0.632948
-61.5, -64.951905, 0.599239
-61.5, -61.487804, 0.572791
-61.5, -58.023702, 0.554641
-61.5, -54.5596, 0.545619
-61.5, -51.095499, 0.546177
-61.5, -47.631397, 0.556287
-61.5, -44.167296, 0.575445
-61.5, -40.703194, 0.602789
-61.5, -37.239092, 0.637266
-61.5, -33.774991, 0.677789
-61.5, -30.310889, 0.723342
-61.5, -26.846788, 0.773037
-61.5, -23.382686, 0.826126
-61.5, -19.918584, 0.875516
-61.5, -16.454483, 0.805251
-61.5, -12.990381, 0.735436
-61.5, -9.526279, 0.666212
-61.5, -6.062178, 0.597786
-61.5, -2.598076, 0.530464
-61.5, 0.866025, 0.464729
-61.5, 4.330127, 0.401361
-61.5, 7.794229, 0.341677
-61.5, 11.25833, 0.28798
-61.5, 14.722432, 0.244249
-61.5, 18.186533, 0.216608
-61.5, 21.650635, 0.211462
-61.5, 25.114737, 0.230324
-61.5, 28.578838, 0.268177
-61.5, 32.04294, 0.318314
-61.5, 35.507042, 0.375853
-61.5, 38.971143, 0.437885
-61.5, 42.435245, 0.502749
-61.5, 45.899346, 0.569479
-61.5, 49.363448, 0.637489
-61.5, 52.82755, 0.706409
-61.5, 56.291651, 0.775997
-61.5, 59.755753, 0.846088
-61.5, 63.219854, 0.916567
-61.5, 66.683956, 0.987351
-61.5, 70.148058, 1.026296
-61.5, 73.612159, 1.019539
-61.5, 77.076261, 1.017925
-61.5, 80.540363, 1.02148
-61.5, 84.004464, 1.030148
-58.5, -84.004464, 0.808326
-58.5, -80.540363, 0.751294
-58.5, -77.076261, 0.69716
-58.5, -73.612159, 0.646651
-58.5, -70.148058, 0.600682
-58.5, -66.683956, 0.560371
-58.5, -63.219854, 0.527019
-58.5, -59.755753, 0.502015
-58.5, -56.291651, 0.486646
-58.5, -52.82755, 0.481836
-58.5, -49.363448, 0.487896
-58.5, -45.899346, 0.504437
-58.5, -42.435245, 0.530477
-58.5, -38.971143, 0.564705
-58.5, -35.507042, 0.605734
-58.5, -32.04294, 0.652282
-58.5, -28.578838, 0.703253
-58.5, -25.114737, 0.757757
-58.5, -21.650635, 0.815083
-58.5, -18.186533, 0.826839
-58.5, -14.722432, 0.755534
-58.5, -11.25833, 0.684497
-58.5, -7.794229, 0.613821
-58.5, -4.330127, 0.543648
-58.5, -0.866025, 0.474201
-58.5, 2.598076, 0.405851
-58.5, 6.062178, 0.339264
-58.5, 9.526279, 0.275719
-58.5, 12.990381, 0.217895
-58.5, 16.454483, 0.171672
-58.5, 19.918584, 0.148326
-58.5, 23.382686, 0.158322
-58.5, 26.846788, 0.19664
-58.5, 30.310889, 0.250608
-58.5, 33.774991, 0.312215
-58.5, 37.239092, 0.37774
-58.5, 40.703194, 0.445458
-58.5, 44.167296, 0.514504
-58.5, 47.631397, 0.584408
-58.5, 51.095499, 0.654894
-58.5, 54.5596, 0.725793
-58.5, 58.023702, 0.796995
-58.5, 61.487804, 0.868426
-58.5, 64.951905, 0.940033
-58.5, 68.416007, 0.969608
-58.5, 71.880109, 0.959713
-58.5, 75.34421, 0.955245
-58.5, 78.808312, 0.956281
-58.5, 82.272413, 0.962804
-58.5, 85.736515, 0.974702
-55.5, -85.736515, 0.80324
-55.5, -82.272413, 0.74228
-55.5, -78.808312, 0.683594
-55.5, -75.34421, 0.62782
-55.5, -71.880109, 0.575805
-55.5, -68.416007, 0.528659
-55.5, -64.951905, 0.487796
-55.5, -61.487804, 0.454914
-55.5, -58.023702, 0.431838
-55.5, -54.5596, 0.420187
-55.5, -51.095499, 0.420912
-55.5, -47.631397, 0.43395
-55.5, -44.167296, 0.458251
-55.5, -40.703194, 0.49215
-55.5, -37.239092, 0.533822
-55.5, -33.774991, 0.581597
-55.5, -30.310889, 0.634099
-55.5, -26.846788, 0.690248
-55.5, -23.382686, 0.749227
-55.5, -19.918584, 0.810416
-55.5, -16.454483, 0.781877
-55.5, -12.990381, 0.709767
-55.5, -9.526279, 0.637763
-55.5, -6.062178, 0.565906
-55.5, -2.598076, 0.494262
-55.5, 0.866025, 0.422937
-55.5, 4.330127, 0.352126
-55.5, 7.794229, 0.282216
-55.5, 11.25833, 0.214091
-55.5, 14.722432, 0.1502
-55.5, 18.186533, 0.099102
-55.5, 21.650635, 0.087283
-55.5, 25.114737, 0.1263
-55.5, 28.578838, 0.186604
-55.5, 32.04294, 0.253429
-55.5, 35.507042, 0.32275
-55.5, 38.971143, 0.39325
-55.5, 42.435245, 0.464391
-55.5, 45.899346, 0.535918
-55.5, 49.363448, 0.607696
-55.5, 52.82755, 0.679644
-55.5, 56.291651, 0.751714
-55.5, 59.755753, 0.823873
-55.5, 63.219854, 0.896101
-55.5, 66.683956, 0.915169
-55.5, 70.148058, 0.901762
-55.5, 73.612159, 0.894064
-55.5, 77.076261, 0.892224
-55.5, 80.540363, 0.896277
-55.5, 84.004464, 0.906144
-52.5, -84.004464, 0.740305
-52.5, -80.540363, 0.677573
-52.5, -77.076261, 0.617004
-52.5, -73.612159, 0.559302
-52.5, -70.148058, 0.50545
-52.5, -66.683956, 0.456812
-52.5, -63.219854, 0.415224
-52.5, -59.755753, 0.382988
-52.5, -56.291651, 0.362609
-52.5, -52.82755, 0.356128
-52.5, -49.363448, 0.364286
-52.5, -45.899346, 0.386158
-52.5, -42.435245, 0.419604
-52.5, -38.971143, 0.462118
-52.5, -35.507042, 0.511444
-52.5, -32.04294, 0.565803
-52.5, -28.578838, 0.62388
-52.5, -25.114737, 0.684731
-52.5, -21.650635, 0.747678
-52.5, -18.186533, 0.812234
-52.5, -14.722432, 0.741308
-52.5, -11.25833, 0.668762
-52.5, -7.794229, 0.596224
-52.5, -4.330127, 0.523698
-52.5, -0.866025, 0.45119
-52.5, 2.598076, 0.37871
-52.5, 6.062178, 0.306278
-52.5, 9.526279, 0.233939
-52.5, 12.990381, 0.161817
-52.5, 16.454483, 0.090431
-52.5, 19.918584, 0.026589
-52.5, 23.382686, 0.061418
-52.5, 26.846788, 0.131809
-52.5, 30.310889, 0.203742
-52.5, 33.774991, 0.276015
-52.5, 37.239092, 0.348416
-52.5, 40.703194, 0.420879
-52.5, 44.167296, 0.493377
-52.5, 47.631397, 0.565896
-52.5, 51.095499, 0.63843
-52.5, 54.5596, 0.710973
-52.5, 58.023702, 0.783523
-52.5, 61.487804, 0.856078
-52.5, 64.951905, 0.863402
-52.5, 68.416007, 0.846071
-52.5, 71.880109, 0.834712
-52.5, 75.34421, 0.829572
-52.5, 78.808312, 0.830764
-52.5, 82.272413, 0.838264
-52.5, 85.736515, 0.851903
-49.5, -85.736515, 0.745426
-49.5, -82.272413, 0.679297
-49.5, -78.808312, 0.614627
-49.5, -75.34421, 0.551927
-49.5, -71.880109, 0.491952
-49.5, -68.416007, 0.435827
-49.5, -64.951905, 0.385241
-49.5, -61.487804, 0.342655
-49.5, -58.023702, 0.311367
-49.5, -54.5596, 0.294997
-49.5, -51.095499, 0.296028
-49.5, -47.631397, 0.31429
-49.5, -44.167296, 0.347073
-49.5, -40.703194, 0.390739
-49.5, -37.239092, 0.442076
-49.5, -33.774991, 0.498719
-49.5, -30.310889, 0.559059
-49.5, -26.846788, 0.62202
-49.5, -23.382686, 0.686882
-49.5, -19.918584, 0.753154
-49.5, -16.454483, 0.778359
-49.5, -12.990381, 0.705889
-49.5, -9.526279, 0.633444
-49.5, -6.062178, 0.561035
-49.5, -2.598076, 0.488677
-49.5, 0.866025, 0.416397
-49.5, 4.330127, 0.344243
-49.5, 7.794229, 0.272316
-49.5, 11.25833, 0.200861
-49.5, 14.722432, 0.130654
-49.5, 18.186533, 0.065815
-49.5, 21.650635, 0.046139
-49.5, 25.114737, 0.102285
-49.5, 28.578838, 0.171264
-49.5, 32.04294, 0.242357
-49.5, 35.507042, 0.314131
-49.5, 38.971143, 0.386207
-49.5, 42.435245, 0.458442
-49.5, 45.899346, 0.530772
-49.5, 49.363448, 0.603162
-49.5, 52.82755, 0.675593
-49.5, 56.291651, 0.748054
-49.5, 59.755753, 0.820535
-49.5, 63.219854, 0.814818
-49.5, 66.683956, 0.793116
-49.5, 70.148058, 0.777608
-49.5, 73.612159, 0.768668
-49.5, 77.076261, 0.766527
-49.5, 80.540363, 0.77124
-49.5, 84.004464, 0.782685
-46.5, -84.004464, 0.68871
-46.5, -80.540363, 0.620785
-46.5, -77.076261, 0.554043
-46.5, -73.612159, 0.488967
-46.5, -70.148058, 0.426321
-46.5, -66.683956, 0.367351
-46.5, -63.219854, 0.314134
-46.5, -59.755753, 0.270092
-46.5, -56.291651, 0.240323
-46.5, -52.82755, 0.230427
-46.5, -49.363448, 0.242846
-46.5, -45.899346, 0.274568
-46.5, -42.435245, 0.319902
-46.5, -38.971143, 0.373929
-46.5, -35.507042, 0.43341
-46.5, -32.04294, 0.496389
-46.5, -28.578838, 0.561691
-46.5, -25.114737, 0.628591
-46.5, -21.650635, 0.696629
-46.5, -18.186533, 0.765503
-46.5, -14.722432, 0.748233
-46.5, -11.25833, 0.676429
-46.5, -7.794229, 0.604812
-46.5, -4.330127, 0.533455
-46.5, -0.866025, 0.462479
-46.5, 2.598076, 0.392092
-46.5, 6.062178, 0.322678
-46.5, 9.526279, 0.255033
-46.5, 12.990381, 0.191048
-46.5, 16.454483, 0.135986
-46.5, 19.918584, 0.104983
-46.5, 23.382686, 0.118688
-46.5, 26.846788, 0.166397
-46.5, 30.310889, 0.227652
-46.5, 33.774991, 0.294107
-46.5, 37.239092, 0.362916
-46.5, 40.703194, 0.432959
-46.5, 44.167296, 0.503722
-46.5, 47.631397, 0.574937
-46.5, 51.095499, 0.646457
-46.5, 54.5596, 0.71819
-46.5, 58.023702, 0.790077
-46.5, 61.487804, 0.77002
-46.5, 64.951905, 0.743483
-46.5, 68.416007, 0.723284
-46.5, 71.880109, 0.709963
-46.5, 75.34421, 0.703912
-46.5, 78.808312, 0.705318
-46.5, 82.272413, 0.714136
-46.5, 85.736515, 0.730098
-43.5, -85.736515, 0.705503
-43.5, -82.272413, 0.635231
-43.5, -78.808312, 0.565544
-43.5, -75.34421, 0.496686
-43.5, -71.880109, 0.429057
-43.5, -68.416007, 0.363345
-43.5, -64.951905, 0.300807
-43.5, -61.487804, 0.243897
-43.5, -58.023702, 0.197543
-43.5, -54.5596, 0.170578
-43.5, -51.095499, 0.172355
-43.5, -47.631397, 0.202118
-43.5, -44.167296, 0.250067
-43.5, -40.703194, 0.307816
-43.5, -37.239092, 0.370816
-43.5, -33.774991, 0.4368
-43.5, -30.310889, 0.504599
-43.5, -26.846788, 0.57357
-43.5, -23.382686, 0.643335
-43.5, -19.918584, 0.713662
-43.5, -16.454483, 0.7844
-43.5, -12.990381, 0.724153
-43.5, -9.526279, 0.653736
-43.5, -6.062178, 0.583849
-43.5, -2.598076, 0.514708
-43.5, 0.866025, 0.44666
-43.5, 4.330127, 0.380292
-43.5, 7.794229, 0.316662
-43.5, 11.25833, 0.257806
-43.5, 14.722432, 0.20782
-43.5, 18.186533, 0.1745
-43.5, 21.650635, 0.16807
-43.5, 25.114737, 0.191261
-43.5, 28.578838, 0.235478
-43.5, 32.04294, 0.2913
-43.5, 35.507042, 0.353266
-43.5, 38.971143, 0.418658
-43.5, 42.435245, 0.486095
-43.5, 45.899346, 0.554831
-43.5, 49.363448, 0.624438
-43.5, 52.82755, 0.694655
-43.5, 56.291651, 0.765312
-43.5, 59.755753, 0.729704
-43.5, 63.219854, 0.69788
-43.5, 66.683956, 0.672415
-43.5, 70.148058, 0.65405
-43.5, 73.612159, 0.643396
-43.5, 77.076261, 0.640836
-43.5, 80.540363, 0.646467
-43.5, 84.004464, 0.660079
-40.5, -84.004464, 0.657419
-40.5, -80.540363, 0.585877
-40.5, -77.076261, 0.514627
-40.5, -73.612159, 0.443809
-40.5, -70.148058, 0.373668
-40.5, -66.683956, 0.304672
-40.5, -63.219854, 0.23782
-40.5, -59.755753, 0.175578
-40.5, -56.291651, 0.125032
-40.5, -52.82755, 0.104759
-40.5, -49.363448, 0.129815
-40.5, -45.899346, 0.182388
-40.5, -42.435245, 0.245388
-40.5, -38.971143, 0.312571
-40.5, -35.507042, 0.381736
-40.5, -32.04294, 0.451974
-40.5, -28.578838, 0.522852
-40.5, -25.114737, 0.594141
-40.5, -21.650635, 0.66571
-40.5, -18.186533, 0.737477
-40.5, -14.722432, 0.775741
-40.5, -11.25833, 0.706739
-40.5, -7.794229, 0.63853
-40.5, -4.330127, 0.571399
-40.5, -0.866025, 0.505776
-40.5, 2.598076, 0.442333
-40.5, 6.062178, 0.382157
-40.5, 9.526279, 0.327055
-40.5, 12.990381, 0.280039
-40.5, 16.454483, 0.245795
-40.5, 19.918584, 0.230096
-40.5, 23.382686, 0.236663
-40.5, 26.846788, 0.263839
-40.5, 30.310889, 0.306183
-40.5, 33.774991, 0.35836
-40.5, 37.239092, 0.416691
-40.5, 40.703194, 0.478933
-40.5, 44.167296, 0.543745
-40.5, 47.631397, 0.610308
-40.5, 51.095499, 0.678107
-40.5, 54.5596, 0.737413
-40.5, 58.023702, 0.694653
-40.5, 61.487804, 0.657147
-40.5, 64.951905, 0.625843
-40.5, 68.416007, 0.601707
-40.5, 71.880109, 0.585628
-40.5, 75.34421, 0.578277
-40.5, 78.808312, 0.579987
-40.5, 82.272413, 0.590679
-40.5, 85.736515, 0.609881
-37.5, -85.736515, 0.686597
-37.5, -82.272413, 0.614167
-37.5, -78.808312, 0.541776
-37.5, -75.34421, 0.469445
-37.5, -71.880109, 0.397205
-37.5, -68.416007, 0.325117
-37.5, -64.951905, 0.253311
-37.5, -61.487804, 0.18212
-37.5, -58.023702, 0.112717
-37.5, -54.5596, 0.052712
-37.5, -51.095499, 0.058207
-37.5, -47.631397, 0.120555
-37.5, -44.167296, 0.190303
-37.5, -40.703194, 0.261597
-37.5, -37.239092, 0.333446
-37.5, -33.774991, 0.405557
-37.5, -30.310889, 0.47781
-37.5, -26.846788, 0.550149
-37.5, -23.382686, 0.622545
-37.5, -19.918584, 0.694979
-37.5, -16.454483, 0.767441
-37.5, -12.990381, 0.762971
-37.5, -9.526279, 0.696489
-37.5, -6.062178, 0.631352
-37.5, -2.598076, 0.568024
-37.5, 0.866025, 0.50718
-37.5, 4.330127, 0.449832
-37.5, 7.794229, 0.397494
-37.5, 11.25833, 0.352407
-37.5, 14.722432, 0.317673
-37.5, 18.186533, 0.296946
-37.5, 21.650635, 0.293214
-37.5, 25.114737, 0.307095
-37.5, 28.578838, 0.336418
-37.5, 32.04294, 0.377601
-37.5, 35.507042, 0.427228
-37.5, 38.971143, 0.482702
-37.5, 42.435245, 0.542231
-37.5, 45.899346, 0.604619
-37.5, 49.363448, 0.669067
-37.5, 52.82755, 0.713902
-37.5, 56.291651, 0.665697
-37.5, 59.755753, 0.622241
-37.5, 63.219854, 0.584596
-37.5, 66.683956, 0.553947
-37.5, 70.148058, 0.531505
-37.5, 73.612159, 0.518338
-37.5, 77.076261, 0.515157
-37.5, 80.540363, 0.522145
-37.5, 84.004464, 0.538907
-34.5, -84.004464, 0.649373
-34.5, -80.540363, 0.576835
-34.5, -77.076261, 0.504309
-34.5, -73.612159, 0.431801
-34.5, -70.148058, 0.359324
-34.5, -66.683956, 0.286899
-34.5, -63.219854, 0.214579
-34.5, -59.755753, 0.142525
-34.5, -56.291651, 0.071546
-34.5, -52.82755, 0.021455
-34.5, -49.363448, 0.07961
-34.5, -45.899346, 0.150836
-34.5, -42.435245, 0.222937
-34.5, -38.971143, 0.295274
-34.5, -35.507042, 0.367707
-34.5, -32.04294, 0.440189
-34.5, -28.578838, 0.512699
-34.5, -25.114737, 0.585226
-34.5, -21.650635, 0.657766
-34.5, -18.186533, 0.730314
-34.5, -14.722432, 0.802867
-34.5, -11.25833, 0.756974
-34.5, -7.794229, 0.693723
-34.5, -4.330127, 0.632478
-34.5, -0.866025, 0.573882
-34.5, 2.598076, 0.518835
-34.5, 6.062178, 0.468588
-34.5, 9.526279, 0.424848
-34.5, 12.990381, 0.389811
-34.5, 16.454483, 0.365986
-34.5, 19.918584, 0.355633
-34.5, 23.382686, 0.359917
-34.5, 26.846788, 0.378341
-34.5, 30.310889, 0.408998
-34.5, 33.774991, 0.449391
-34.5, 37.239092, 0.497154
-34.5, 40.703194, 0.55037
-34.5, 44.167296, 0.607609
-34.5, 47.631397, 0.667837
-34.5, 51.095499, 0.697187
-34.5, 54.5596, 0.64366
-34.5, 58.023702, 0.594191
-34.5, 61.487804, 0.549875
-34.5, 64.951905, 0.512054
-34.5, 68.416007, 0.482257
-34.5, 71.880109, 0.462039
-34.5, 75.34421, 0.452686
-34.5, 78.808312, 0.454869
-34.5, 82.272413, 0.468425
-34.5, 85.736515, 0.492418
-31.5, -85.736515, 0.690439
-31.5, -82.272413, 0.618458
-31.5, -78.808312, 0.546637
-31.5, -75.34421, 0.475046
-31.5, -71.880109, 0.403809
-31.5, -68.416007, 0.333153
-31.5, -64.951905, 0.263546
-31.5, -61.487804, 0.196107
-31.5, -58.023702, 0.134146
-31.5, -54.5596, 0.089825
-31.5, -51.095499, 0.093156
-31.5, -47.631397, 0.140796
-31.5, -44.167296, 0.203728
-31.5, -40.703194, 0.27152
-31.5, -37.239092, 0.341287
-31.5, -33.774991, 0.412027
-31.5, -30.310889, 0.483314
-31.5, -26.846788, 0.554936
-31.5, -23.382686, 0.626779
-31.5, -19.918584, 0.698775
-31.5, -16.454483, 0.77088
-31.5, -12.990381, 0.819426
-31.5, -9.526279, 0.757913
-31.5, -6.062178, 0.698528
-31.5, -2.598076, 0.641861
-31.5, 0.866025, 0.588699
-31.5, 4.330127, 0.540077
-31.5, 7.794229, 0.497329
-31.5, 11.25833, 0.462088
-31.5, 14.722432, 0.436178
-31.5, 18.186533, 0.421322
-31.5, 21.650635, 0.418699
-31.5, 25.114737, 0.428535
-31.5, 28.578838, 0.450013
-31.5, 32.04294, 0.481578
-31.5, 35.507042, 0.521401
-31.5, 38.971143, 0.567747
-31.5, 42.435245, 0.619152
-31.5, 45.899346, 0.674462
-31.5, 49.363448, 0.687764
-31.5, 52.82755, 0.629269
-31.5, 56.291651, 0.574
-31.5, 59.755753, 0.522981
-31.5, 63.219854, 0.477574
-31.5, 66.683956, 0.439524
-31.5, 70.148058, 0.41088
-31.5, 73.612159, 0.393699
-31.5, 77.076261, 0.389501
-31.5, 80.540363, 0.398698
-31.5, 84.004464, 0.42041
-28.5, -84.004464, 0.665417
-28.5, -80.540363, 0.594838
-28.5, -77.076261, 0.524806
-28.5, -73.612159, 0.455573
-28.5, -70.148058, 0.387566
-28.5, -66.683956, 0.321566
-28.5, -63.219854, 0.25911
-28.5, -59.755753, 0.203489
-28.5, -56.291651, 0.161904
-28.5, -52.82755, 0.146814
-28.5, -49.363448, 0.165626
-28.5, -45.899346, 0.209393
-28.5, -42.435245, 0.266074
-28.5, -38.971143, 0.32906
-28.5, -35.507042, 0.395351
-28.5, -32.04294, 0.46353
-28.5, -28.578838, 0.532873
-28.5, -25.114737, 0.602979
-28.5, -21.650635, 0.67361
-28.5, -18.186533, 0.744615
-28.5, -14.722432, 0.815898
-28.5, -11.25833, 0.823498
-28.5, -7.794229, 0.765761
-28.5, -4.330127, 0.710751
-28.5, -0.866025, 0.659151
-28.5, 2.598076, 0.611824
-28.5, 6.062178, 0.569837
-28.5, 9.526279, 0.534448
-28.5, 12.990381, 0.507042
-28.5, 16.454483, 0.488963
-28.5, 19.918584, 0.481263
-28.5, 23.382686, 0.484437
-28.5, 26.846788, 0.498278
-28.5, 30.310889, 0.521937
-28.5, 33.774991, 0.554158
-28.5, 37.239092, 0.593549
-28.5, 40.703194, 0.638785
-28.5, 44.167296, 0.688715
-28.5, 47.631397, 0.685934
-28.5, 51.095499, 0.623055
-28.5, 54.5596, 0.562518
-28.5, 58.023702, 0.505164
-28.5, 61.487804, 0.452207
-28.5, 64.951905, 0.405373
-28.5, 68.416007, 0.367015
-28.5, 71.880109, 0.340013
-28.5, 75.34421, 0.32719
-28.5, 78.808312, 0.330203
-28.5, 82.272413, 0.348641
-28.5, 85.736515, 0.380268
-25.5, -85.736515, 0.716662
-25.5, -82.272413, 0.647602
-25.5, -78.808312, 0.579405
-25.5, -75.34421, 0.512413
-25.5, -71.880109, 0.447169
-25.5, -68.416007, 0.384564
-25.5, -64.951905, 0.326121
-25.5, -61.487804, 0.27451
-25.5, -58.023702, 0.234293
-25.5, -54.5596, 0.212054
-25.5, -51.095499, 0.213486
-25.5, -47.631397, 0.238163
-25.5, -44.167296, 0.280006
-25.5, -40.703194, 0.332597
-25.5, -37.239092, 0.391631
-25.5, -33.774991, 0.454604
-25.5, -30.310889, 0.520087
-25.5, -26.846788, 0.587241
-25.5, -23.382686, 0.655553
-25.5, -19.918584, 0.724696
-25.5, -16.454483, 0.794452
-25.5, -12.990381, 0.864673
-25.5, -9.526279, 0.833892
-25.5, -6.062178, 0.78031
-25.5, -2.598076, 0.73002
-25.5, 0.866025, 0.683747
-25.5, 4.330127, 0.64236
-25.5, 7.794229, 0.606861
-25.5, 11.25833, 0.578333
-25.5, 14.722432, 0.557848
-25.5, 18.186533, 0.54631
-25.5, 21.650635, 0.544291
-25.5, 25.114737, 0.551893
-25.5, 28.578838, 0.568731
-25.5, 32.04294, 0.594021
-25.5, 35.507042, 0.626739
-25.5, 38.971143, 0.665792
-25.5, 42.435245, 0.710136
-25.5, 45.899346, 0.691757
-25.5, 49.363448, 0.625262
-25.5, 52.82755, 0.560279
-25.5, 56.291651, 0.497402
-25.5, 59.755753, 0.43754
-25.5, 63.219854, 0.382112
-25.5, 66.683956, 0.333338
-25.5, 70.148058, 0.294541
-25.5, 73.612159, 0.270058
-25.5, 77.076261, 0.263901
-25.5, 80.540363, 0.277295
-25.5, 84.004464, 0.307697
-22.5, -84.004464, 0.703905
-22.5, -80.540363, 0.637601
-22.5, -77.076261, 0.572821
-22.5, -73.612159, 0.510146
-22.5, -70.148058, 0.450455
-22.5, -66.683956, 0.395104
-22.5, -63.219854, 0.34618
-22.5, -59.755753, 0.306773
-22.5, -56.291651, 0.280919
-22.5, -52.82755, 0.272501
-22.5, -49.363448, 0.28308
-22.5, -45.899346, 0.310721
-22.5, -42.435245, 0.351422
-22.5, -38.971143, 0.401227
-22.5, -35.507042, 0.45717
-22.5, -32.04294, 0.517265
-22.5, -28.578838, 0.580221
-22.5, -25.114737, 0.645203
-22.5, -21.650635, 0.711655
-22.5, -18.186533, 0.779201
-22.5, -14.722432, 0.84758
-22.5, -11.25833, 0.902716
-22.5, -7.794229, 0.850375
-22.5, -4.330127, 0.801195
-22.5, -0.866025, 0.755796
-22.5, 2.598076, 0.714896
-22.5, 6.062178, 0.679309
-22.5, 9.526279, 0.649909
-22.5, 12.990381, 0.627566
-22.5, 16.454483, 0.613051
-22.5, 19.918584, 0.606928
-22.5, 23.382686, 0.609448
-22.5, 26.846788, 0.620506
-22.5, 30.310889, 0.63966
-22.5, 33.774991, 0.666212
-22.5, 37.239092, 0.69932
-22.5, 40.703194, 0.738101
-22.5, 44.167296, 0.705043
-22.5, 47.631397, 0.635801
-22.5, 51.095499, 0.567393
-22.5, 54.5596, 0.500163
-22.5, 58.023702, 0.434658
-22.5, 61.487804, 0.37179
-22.5, 64.951905, 0.313152
-22.5, 68.416007, 0.261604
-22.5, 71.880109, 0.222138
-22.5, 75.34421, 0.201965
-22.5, 78.808312, 0.20681
-22.5, 82.272413, 0.235132
-22.5, 85.736515, 0.279893
-19.5, -85.736515, 0.762962
-19.5, -82.272413, 0.698495
-19.5, -78.808312, 0.63578
-19.5, -75.34421, 0.57539
-19.5, -71.880109, 0.518138
-19.5, -68.416007, 0.465184
-19.5, -64.951905, 0.418164
-19.5, -61.487804, 0.379292
-19.5, -58.023702, 0.351283
-19.5, -54.5596, 0.336858
-19.5, -51.095499, 0.337761
-19.5, -47.631397, 0.353876
-19.5, -44.167296, 0.383288
-19.5, -40.703194, 0.423234
-19.5, -37.239092, 0.471043
-19.5, -33.774991, 0.524567
-19.5, -30.310889, 0.582234
-19.5, -26.846788, 0.64293
-19.5, -23.382686, 0.705873
-19.5, -19.918584, 0.770513
-19.5, -16.454483, 0.836457
-19.5, -12.990381, 0.903419
-19.5, -9.526279, 0.920829
-19.5, -6.062178, 0.872603
-19.5, -2.598076, 0.827937
-19.5, 0.866025, 0.78744
-19.5, 4.330127, 0.751783
-19.5, 7.794229, 0.721686
-19.5, 11.25833, 0.697868
-19.5, 14.722432, 0.680988
-19.5, 18.186533, 0.67157
-19.5, 21.650635, 0.669928
-19.5, 25.114737, 0.676119
-19.5, 28.578838, 0.689932
-19.5, 32.04294, 0.710923
-19.5, 35.507042, 0.73848
-19.5, 38.971143, 0.771901
-19.5, 42.435245, 0.725383
-19.5, 45.899346, 0.654269
-19.5, 49.363448, 0.583518
-19.5, 52.82755, 0.513277
-19.5, 56.291651, 0.44379
-19.5, 59.755753, 0.375475
-19.5, 63.219854, 0.309112
-19.5, 66.683956, 0.246281
-19.5, 70.148058, 0.190513
-19.5, 73.612159, 0.149906
-19.5, 77.076261, 0.138507
-19.5, 80.540363, 0.162582
-19.5, 84.004464, 0.21028
-16.5, -84.004464, 0.761441
-16.5, -80.540363, 0.700603
-16.5, -77.076261, 0.64221
-16.5, -73.612159, 0.586992
-16.5, -70.148058, 0.535929
-16.5, -66.683956, 0.490324
-16.5, -63.219854, 0.451831
-16.5, -59.755753, 0.422398
-16.5, -56.291651, 0.404012
-16.5, -52.82755, 0.398205
-16.5, -49.363448, 0.405518
-16.5, -45.899346, 0.425274
-16.5, -42.435245, 0.455859
-16.5, -38.971143, 0.495271
-16.5, -35.507042, 0.541586
-16.5, -32.04294, 0.593189
-16.5, -28.578838, 0.64882
-16.5, -25.114737, 0.707529
-16.5, -21.650635, 0.768611
-16.5, -18.186533, 0.831544
-16.5, -14.722432, 0.895937
-16.5, -11.25833, 0.961497
-16.5, -7.794229, 0.944189
-16.5, -4.330127, 0.90015
-16.5, -0.866025, 0.85999
-16.5, 2.598076, 0.824276
-16.5, 6.062178, 0.79361
-16.5, 9.526279, 0.768594
-16.5, 12.990381, 0.749796
-16.5, 16.454483, 0.737691
-16.5, 19.918584, 0.73261
-16.5, 23.382686, 0.734699
-16.5, 26.846788, 0.743897
-16.5, 30.310889, 0.759948
-16.5, 33.774991, 0.782428
-16.5, 37.239092, 0.810804
-16.5, 40.703194, 0.752204
-16.5, 44.167296, 0.680023
-16.5, 47.631397, 0.607937
-16.5, 51.095499, 0.535984
-16.5, 54.5596, 0.464228
-16.5, 58.023702, 0.392775
-16.5, 61.487804, 0.321826
-16.5, 64.951905, 0.251811
-16.5, 68.416007, 0.183797
-16.5, 71.880109, 0.121201
-16.5, 75.34421, 0.078322
-16.5, 78.808312, 0.090083
-16.5, 82.272413, 0.143638
-16.5, 85.736515, 0.209008
-13.5, -85.736515, 0.825969
-13.5, -82.272413, 0.766818
-13.5, -78.808312, 0.710163
-13.5, -75.34421, 0.656649
-13.5, -71.880109, 0.607109
-13.5, -68.416007, 0.562592
-13.5, -64.951905, 0.524381
-13.5, -61.487804, 0.49394
-13.5, -58.023702, 0.472773
-13.5, -54.5596, 0.462155
-13.5, -51.095499, 0.462814
-13.5, -47.631397, 0.474703
-13.5, -44.167296, 0.497015
-13.5, -40.703194, 0.528433
-13.5, -37.239092, 0.567447
-13.5, -33.774991, 0.612605
-13.5, -30.310889, 0.662655
-13.5, -26.846788, 0.71657
-13.5, -23.382686, 0.773544
-13.5, -19.918584, 0.83295
-13.5, -16.454483, 0.894301
-13.5, -12.990381, 0.9213
-13.5, -9.526279, 0.94579
-13.5, -6.062178, 0.972417
-13.5, -2.598076, 0.932545
-13.5, 0.866025, 0.896783
-13.5, 4.330127, 0.865643
-13.5, 7.794229, 0.839637
-13.5, 11.25833, 0.819255
-13.5, 14.722432, 0.804925
-13.5, 18.186533, 0.796973
-13.5, 21.650635, 0.79559
-13.5, 25.114737, 0.80081
-13.5, 28.578838, 0.812506
-13.5, 32.04294, 0.830404
-13.5, 35.507042, 0.854115
-13.5, 38.971143, 0.784842
-13.5, 42.435245, 0.71227
-13.5, 45.899346, 0.639701
-13.5, 49.363448, 0.567134
-13.5, 52.82755, 0.494572
-13.5, 56.291651, 0.422017
-13.5, 59.755753, 0.349472
-13.5, 63.219854, 0.276946
-13.5, 66.683956, 0.204459
-13.5, 70.148058, 0.132075
-13.5, 73.612159, 0.06017
-13.5, 77.076261, 0.01825
-13.5, 80.540363, 0.087073
-13.5, 84.004464, 0.159269
-10.5, -84.004464, 0.834093
-10.5, -80.540363, 0.77895
-10.5, -77.076261, 0.726879
-10.5, -73.612159, 0.678585
-10.5, -70.148058, 0.634932
-10.5, -66.683956, 0.596939
-10.5, -63.219854, 0.565747
-10.5, -59.755753, 0.54253
-10.5, -56.291651, 0.528341
-10.5, -52.82755, 0.523914
-10.5, -49.363448, 0.529493
-10.5, -45.899346, 0.544772
-10.5, -42.435245, 0.56897
-10.5, -38.971143, 0.601009
-10.5, -35.507042, 0.639714
-10.5, -32.04294, 0.683953
-10.5, -28.578838, 0.732725
-10.5, -25.114737, 0.785185
-10.5, -21.650635, 0.821056
-10.5, -18.186533, 0.832778
-10.5, -14.722432, 0.850552
-10.5, -11.25833, 0.874011
-10.5, -7.794229, 0.902712
-10.5, -4.330127, 0.936172
-10.5, -0.866025, 0.969302
-10.5, 2.598076, 0.937761
-10.5, 6.062178, 0.910922
-10.5, 9.526279, 0.889214
-10.5, 12.990381, 0.873017
-10.5, 16.454483, 0.862642
-10.5, 19.918584, 0.858301
-10.5, 23.382686, 0.860085
-10.5, 26.846788, 0.867956
-10.5, 30.310889, 0.881751
-10.5, 33.774991, 0.895059
-10.5, 37.239092, 0.822605
-10.5, 40.703194, 0.750176
-10.5, 44.167296, 0.677778
-10.5, 47.631397, 0.605425
-10.5, 51.095499, 0.533134
-10.5, 54.5596, 0.460934
-10.5, 58.023702, 0.388876
-10.5, 61.487804, 0.317057
-10.5, 64.951905, 0.245686
-10.5, 68.416007, 0.175311
-10.5, 71.880109, 0.107901
-10.5, 75.34421, 0.055562
-10.5, 78.808312, 0.071189
-10.5, 82.272413, 0.132607
-10.5, 85.736515, 0.201587
-7.5, -85.736515, 0.90219
-7.5, -82.272413, 0.84837
-7.5, -78.808312, 0.79753
-7.5, -75.34421, 0.750274
-7.5, -71.880109, 0.707322
-7.5, -68.416007, 0.669502
-7.5, -64.951905, 0.637729
-7.5, -61.487804, 0.612943
-7.5, -58.023702, 0.596018
-7.5, -54.5596, 0.587631
-7.5, -51.095499, 0.58815
-7.5, -47.631397, 0.59755
-7.5, -44.167296, 0.615424
-7.5, -40.703194, 0.641065
-7.5, -37.239092, 0.673586
-7.5, -33.774991, 0.712045
-7.5, -30.310889, 0.755536
-7.5, -26.846788, 0.75251
-7.5, -23.382686, 0.754885
-7.5, -19.918584, 0.764178
-7.5, -16.454483, 0.780141
-7.5, -12.990381, 0.802377
-7.5, -9.526279, 0.830382
-7.5, -6.062178, 0.863594
-7.5, -2.598076, 0.901439
-7.5, 0.866025, 0.943358
-7.5, 4.330127, 0.982398
-7.5, 7.794229, 0.959561
-7.5, 11.25833, 0.941779
-7.5, 14.722432, 0.92934
-7.5, 18.186533, 0.922461
-7.5, 21.650635, 0.921266
-7.5, 25.114737, 0.925778
-7.5, 28.578838, 0.935913
-7.5, 32.04294, 0.936823
-7.5, 35.507042, 0.864822
-7.5, 38.971143, 0.792927
-7.5, 42.435245, 0.72117
-7.5, 45.899346, 0.649595
-7.5, 49.363448, 0.578272
-7.5, 52.82755, 0.507305
-7.5, 56.291651, 0.436869
-7.5, 59.755753, 0.36727
-7.5, 63.219854, 0.299091
-7.5, 66.683956, 0.233581
-7.5, 70.148058, 0.173784
-7.5, 73.612159, 0.127974
-7.5, 77.076261, 0.114411
-7.5, 80.540363, 0.142614
-7.5, 84.004464, 0.195252
-4.5, -84.004464, 0.91828
-4.5, -80.540363, 0.868499
-4.5, -77.076261, 0.822119
-4.5, -73.612159, 0.779747
-4.5, -70.148058, 0.742069
-4.5, -66.683956, 0.709833
-4.5, -63.219854, 0.68381
-4.5, -59.755753, 0.66473
-4.5, -56.291651, 0.653201
-4.5, -52.82755, 0.649625
-4.5, -49.363448, 0.654133
-4.5, -45.899346, 0.666561
-4.5, -42.435245, 0.686479
-4.5, -38.971143, 0.713259
-4.5, -35.507042, 0.716084
-4.5, -32.04294, 0.700012
-4.5, -28.578838, 0.691226
-4.5, -25.114737, 0.690004
-4.5, -21.650635, 0.696386
-4.5, -18.186533, 0.710168
-4.5, -14.722432, 0.73093
-4.5, -11.25833, 0.7581
-4.5, -7.794229, 0.791018
-4.5, -4.330127, 0.828998
-4.5, -0.866025, 0.87138
-4.5, 2.598076, 0.917553
-4.5, 6.062178, 0.966975
-4.5, 9.526279, 1.011075
-4.5, 12.990381, 0.99686
-4.5, 16.454483, 0.987787
-4.5, 19.918584, 0.983998
-4.5, 23.382686, 0.985554
-4.5, 26.846788, 0.992431
-4.5, 30.310889, 0.982181
-4.5, 33.774991, 0.910875
-4.5, 37.239092, 0.839786
-4.5, 40.703194, 0.768976
-4.5, 44.167296, 0.69853
-4.5, 47.631397, 0.62857
-4.5, 51.095499, 0.559279
-4.5, 54.5596, 0.490939
-4.5, 58.023702, 0.424011
-4.5, 61.487804, 0.359285
-4.5, 64.951905, 0.298199
-4.5, 68.416007, 0.243506
-4.5, 71.880109, 0.200508
-4.5, 75.34421, 0.177899
-4.5, 78.808312, 0.183382
-4.5, 82.272413, 0.214815
-4.5, 85.736515, 0.263056
-1.5, -85.736515, 0.988574
-1.5, -82.272413, 0.939715
-1.5, -78.808312, 0.894083
-1.5, -75.34421, 0.852198
-1.5, -71.880109, 0.814638
-1.5, -68.416007, 0.782025
-1.5, -64.951905, 0.755003
-1.5, -61.487804, 0.734187
-1.5, -58.023702, 0.720117
-1.5, -54.5596, 0.713191
-1.5, -51.095499, 0.713618
-1.5, -47.631397, 0.721385
-1.5, -44.167296, 0.730091
-1.5, -40.703194, 0.695653
-1.5, -37.239092, 0.66736
-1.5, -33.774991, 0.64602
-1.5, -30.310889, 0.632337
-1.5, -26.846788, 0.626813
-1.5, -23.382686, 0.629663
-1.5, -19.918584, 0.640775
-1.5, -16.454483, 0.659731
-1.5, -12.990381, 0.685882
-1.5, -9.526279, 0.718442
-1.5, -6.062178, 0.756584
-1.5, -2.598076, 0.79951
-1.5, 0.866025, 0.846492
-1.5, 4.330127, 0.896894
-1.5, 7.794229, 0.95017
-1.5, 11.25833, 1.005865
-1.5, 14.722432, 1.054063
-1.5, 18.186533, 1.048002
-1.5, 21.650635, 1.046951
-1.5, 25.114737, 1.050923
-1.5, 28.578838, 1.030659
-1.5, 32.04294, 0.96021
-1.5, 35.507042, 0.890103
-1.5, 38.971143, 0.820426
-1.5, 42.435245, 0.7513
-1.5, 45.899346, 0.68289
-1.5, 49.363448, 0.615438
-1.5, 52.82755, 0.549294
-1.5, 56.291651, 0.484995
-1.5, 59.755753, 0.423382
-1.5, 63.219854, 0.365815
-1.5, 66.683956, 0.314524
-1.5, 70.148058, 0.273067
-1.5, 73.612159, 0.24646
-1.5, 77.076261, 0.239698
-1.5, 80.540363, 0.254369
-1.5, 84.004464, 0.287208
1.5, -84.004464, 1.011124
1.5, -80.540363, 0.966139
1.5, -77.076261, 0.92467
1.5, -73.612159, 0.887209
1.5, -70.148058, 0.854284
1.5, -66.683956, 0.826437
1.5, -63.219854, 0.804196
1.5, -59.755753, 0.788036
1.5, -56.291651, 0.778335
1.5, -52.82755, 0.775337
1.5, -49.363448, 0.7427
1.5, -45.899346, 0.697638
1.5, -42.435245, 0.657519
1.5, -38.971143, 0.623298
1.5, -35.507042, 0.59599
1.5, -32.04294, 0.57658
1.5, -28.578838, 0.565881
1.5, -25.114737, 0.564388
1.5, -21.650635, 0.572173
1.5, -18.186533, 0.588869
1.5, -14.722432, 0.613749
1.5, -11.25833, 0.645867
1.5, -7.794229, 0.684205
1.5, -4.330127, 0.727781
1.5, -0.866025, 0.775713
1.5, 2.598076, 0.827243
1.5, 6.062178, 0.881742
1.5, 9.526279, 0.938692
1.5, 12.990381, 0.997673
1.5, 16.454483, 1.058346
1.5, 19.918584, 1.109699
1.5, 23.382686, 1.111079
1.5, 26.846788, 1.081838
1.5, 30.310889, 1.012349
1.5, 33.774991, 0.943325
1.5, 37.239092, 0.874877
1.5, 40.703194, 0.807152
1.5, 44.167296, 0.740347
1.5, 47.631397, 0.674737
1.5, 51.095499, 0.610706
1.5, 54.5596, 0.548808
1.5, 58.023702, 0.489852
1.5, 61.487804, 0.435035
1.5, 64.951905, 0.386124
1.5, 68.416007, 0.345636
1.5, 71.880109, 0.316816
1.5, 75.34421, 0.303014
1.5, 78.808312, 0.306264
1.5, 82.272413, 0.326059
1.5, 85.736515, 0.359677
4.5, -85.736515, 1.08269
4.5, -82.272413, 1.038269
4.5, -78.808312, 0.997158
4.5, -75.34421, 0.959781
4.5, -71.880109, 0.926593
4.5, -68.416007, 0.898055
4.5, -64.951905, 0.874625
4.5, -61.487804, 0.85672
4.5, -58.023702, 0.832481
4.5, -54.5596, 0.775746
4.5, -51.095499, 0.721854
4.5, -47.631397, 0.671492
4.5, -44.167296, 0.625512
4.5, -40.703194, 0.584949
4.5, -37.239092, 0.551001
4.5, -33.774991, 0.524952
4.5, -30.310889, 0.508019
4.5, -26.846788, 0.501126
4.5, -23.382686, 0.504686
4.5, -19.918584, 0.518483
4.5, -16.454483, 0.541735
4.5, -12.990381, 0.573294
4.5, -9.526279, 0.611875
4.5, -6.062178, 0.656241
4.5, -2.598076, 0.7053
4.5, 0.866025, 0.758143
4.5, 4.330127, 0.814033
4.5, 7.794229, 0.872385
4.5, 11.25833, 0.932736
4.5, 14.722432, 0.994723
4.5, 18.186533, 1.058058
4.5, 21.650635, 1.122513
4.5, 25.114737, 1.135352
4.5, 28.578838, 1.06688
4.5, 32.04294, 0.998988
4.5, 35.507042, 0.931803
4.5, 38.971143, 0.86549
4.5, 42.435245, 0.800265
4.5, 45.899346, 0.736419
4.5, 49.363448, 0.674342
4.5, 52.82755, 0.61457
4.5, 56.291651, 0.557847
4.5, 59.755753, 0.505199
4.5, 63.219854, 0.458033
4.5, 66.683956, 0.418209
4.5, 70.148058, 0.387994
4.5, 73.612159, 0.369751
4.5, 77.076261, 0.365278
4.5, 80.540363, 0.375069
4.5, 84.004464, 0.398072
7.5, -84.004464, 1.110457
7.5, -80.540363, 1.069658
7.5, -77.076261, 1.032355
7.5, -73.612159, 0.998941
7.5, -70.148058, 0.969816
7.5, -66.683956, 0.945379
7.5, -63.219854, 0.889166
7.5, -59.755753, 0.826781
7.5, -56.291651, 0.766195
7.5, -52.82755, 0.70787
7.5, -49.363448, 0.652411
7.5, -45.899346, 0.600613
7.5, -42.435245, 0.553505
7.5, -38.971143, 0.512383
7.5, -35.507042, 0.478791
7.5, -32.04294, 0.454402
7.5, -28.578838, 0.440747
7.5, -25.114737, 0.438828
7.5, -21.650635, 0.448797
7.5, -18.186533, 0.469897
7.5, -14.722432, 0.500723
7.5, -11.25833, 0.539612
7.5, -7.794229, 0.584956
7.5, -4.330127, 0.635376
7.5, -0.866025, 0.689759
7.5, 2.598076, 0.74724
7.5, 6.062178, 0.807159
7.5, 9.526279, 0.86901
7.5, 12.990381, 0.932409
7.5, 16.454483, 0.997062
7.5, 19.918584, 1.062739
7.5, 23.382686, 1.129261
7.5, 26.846788, 1.123455
7.5, 30.310889, 1.056706
7.5, 33.774991, 0.990777
7.5, 37.239092, 0.925844
7.5, 40.703194, 0.862132
7.5, 44.167296, 0.799932
7.5, 47.631397, 0.739626
7.5, 51.095499, 0.681718
7.5, 54.5596, 0.626871
7.5, 58.023702, 0.575962
7.5, 61.487804, 0.530125
7.5, 64.951905, 0.490784
7.5, 68.416007, 0.45961
7.5, 71.880109, 0.438349
7.5, 75.34421, 0.428479
7.5, 78.808312, 0.430784
7.5, 82.272413, 0.445075
7.5, 85.736515, 0.47026
10.5, -85.736515, 1.182694
10.5, -82.272413, 1.142169
10.5, -78.808312, 1.10493
10.5, -75.34421, 1.071321
10.5, -71.880109, 1.026256
10.5, -68.416007, 0.959069
10.5, -64.951905, 0.892727
10.5, -61.487804, 0.827433
10.5, -58.023702, 0.763456
10.5, -54.5596, 0.701157
10.5, -51.095499, 0.641026
10.5, -47.631397, 0.583731
10.5, -44.167296, 0.530194
10.5, -40.703194, 0.48167
10.5, -37.239092, 0.439821
10.5, -33.774991, 0.406713
10.5, -30.310889, 0.384608
10.5, -26.846788, 0.375457
10.5, -23.382686, 0.380195
10.5, -19.918584, 0.398328
10.5, -16.454483, 0.428156
10.5, -12.990381, 0.467447
10.5, -9.526279, 0.514034
10.5, -6.062178, 0.56612
10.5, -2.598076, 0.622325
10.5, 0.866025, 0.681632
10.5, 4.330127, 0.743297
10.5, 7.794229, 0.806781
10.5, 11.25833, 0.871686
10.5, 14.722432, 0.937718
10.5, 18.186533, 1.004653
10.5, 21.650635, 1.072323
10.5, 25.114737, 1.140597
10.5, 28.578838, 1.11616
10.5, 32.04294, 1.051455
10.5, 35.507042, 0.987845
10.5, 38.971143, 0.925556
10.5, 42.435245, 0.864873
10.5, 45.899346, 0.80616
10.5, 49.363448, 0.749879
10.5, 52.82755, 0.696619
10.5, 56.291651, 0.647128
10.5, 59.755753, 0.602335
10.5, 63.219854, 0.563361
10.5, 66.683956, 0.531488
10.5, 70.148058, 0.508055
10.5, 73.612159, 0.494264
10.5, 77.076261, 0.490927
10.5, 80.540363, 0.498255
10.5, 84.004464, 0.515794
13.5, -84.004464, 1.214688
13.5, -80.540363, 1.177506
13.5, -77.076261, 1.108969
13.5, -73.612159, 1.039529
13.5, -70.148058, 0.970548
13.5, -66.683956, 0.902133
13.5, -63.219854, 0.834422
13.5, -59.755753, 0.767601
13.5, -56.291651, 0.701926
13.5, -52.82755, 0.637749
13.5, -49.363448, 0.575573
13.5, -45.899346, 0.51612
13.5, -42.435245, 0.460448
13.5, -38.971143, 0.410099
13.5, -35.507042, 0.367267
13.5, -32.04294, 0.334852
13.5, -28.578838, 0.316073
13.5, -25.114737, 0.313392
13.5, -21.650635, 0.327205
13.5, -18.186533, 0.355595
13.5, -14.722432, 0.395435
13.5, -11.25833, 0.44365
13.5, -7.794229, 0.497813
13.5, -4.330127, 0.55619
13.5, -0.866025, 0.617585
13.5, 2.598076, 0.681185
13.5, 6.062178, 0.746425
13.5, 9.526279, 0.81291
13.5, 12.990381, 0.880359
13.5, 16.454483, 0.948566
13.5, 19.918584, 1.017378
13.5, 23.382686, 1.086681
13.5, 26.846788, 1.156386
13.5, 30.310889, 1.113558
13.5, 33.774991, 1.051201
13.5, 37.239092, 0.990238
13.5, 40.703194, 0.930944
13.5, 44.167296, 0.873657
13.5, 47.631397, 0.8188
13.5, 51.095499, 0.766893
13.5, 54.5596, 0.718577
13.5, 58.023702, 0.674624
13.5, 61.487804, 0.635939
13.5, 64.951905, 0.603535
13.5, 68.416007, 0.578469
13.5, 71.880109, 0.561725
13.5, 75.34421, 0.554058
13.5, 78.808312, 0.555842
13.5, 82.272413, 0.56699
13.5, 85.736515, 0.586967
16.5, -85.736515, 1.270261
16.5, -82.272413, 1.199179
16.5, -78.808312, 1.128289
16.5, -75.34421, 1.057627
16.5, -71.880109, 0.987244
16.5, -68.416007, 0.917204
16.5, -64.951905, 0.847591
16.5, -61.487804, 0.778521
16.5, -58.023702, 0.710151
16.5, -54.5596, 0.642705
16.5, -51.095499, 0.576509
16.5, -47.631397, 0.512046
16.5, -44.167296, 0.450061
16.5, -40.703194, 0.391733
16.5, -37.239092, 0.338956
16.5, -33.774991, 0.294727
16.5, -30.310889, 0.263386
16.5, -26.846788, 0.249833
16.5, -23.382686, 0.256899
16.5, -19.918584, 0.283044
16.5, -16.454483, 0.323677
16.5, -12.990381, 0.374106
16.5, -9.526279, 0.430906
16.5, -6.062178, 0.491875
16.5, -2.598076, 0.555642
16.5, 0.866025, 0.621346
16.5, 4.330127, 0.688433
16.5, 7.794229, 0.756535
16.5, 11.25833, 0.8254
16.5, 14.722432, 0.894854
16.5, 18.186533, 0.964767
16.5, 21.650635, 1.035048
16.5, 25.114737, 1.105627
16.5, 28.578838, 1.176449
16.5, 32.04294, 1.115682
16.5, 35.507042, 1.055948
16.5, 38.971143, 0.997919
16.5, 42.435245, 0.94191
16.5, 45.899346, 0.888304
16.5, 49.363448, 0.83756
16.5, 52.82755, 0.790233
16.5, 56.291651, 0.74697
16.5, 59.755753, 0.708517
16.5, 63.219854, 0.675696
16.5, 66.683956, 0.649361
16.5, 70.148058, 0.630325
16.5, 73.612159, 0.619263
16.5, 77.076261, 0.616603
16.5, 80.540363, 0.622453
16.5, 84.004464, 0.636579
19.5, -84.004464, 1.223543
19.5, -80.540363, 1.151865
19.5, -77.076261, 1.080308
19.5, -73.612159, 1.008897
19.5, -70.148058, 0.937666
19.5, -66.683956, 0.866658
19.5, -63.219854, 0.795935
19.5, -59.755753, 0.725579
19.5, -56.291651, 0.655708
19.5, -52.82755, 0.586495
19.5, -49.363448, 0.518206
19.5, -45.899346, 0.451257
19.5, -42.435245, 0.386349
19.5, -38.971143, 0.324706
19.5, -35.507042, 0.268585
19.5, -32.04294, 0.222213
19.5, -28.578838, 0.192756
19.5, -25.114737, 0.188328
19.5, -21.650635, 0.210514
19.5, -18.186533, 0.25239
19.5, -14.722432, 0.305976
19.5, -11.25833, 0.366167
19.5, -7.794229, 0.430199
19.5, -4.330127, 0.496588
19.5, -0.866025, 0.564504
19.5, 2.598076, 0.633455
19.5, 6.062178, 0.703138
19.5, 9.526279, 0.773353
19.5, 12.990381, 0.84397
19.5, 16.454483, 0.914893
19.5, 19.918584, 0.986058
19.5, 23.382686, 1.057416
19.5, 26.846788, 1.128929
19.5, 30.310889, 1.181104
19.5, 33.774991, 1.122505
19.5, 37.239092, 1.065629
19.5, 40.703194, 1.010767
19.5, 44.167296, 0.958264
19.5, 47.631397, 0.90853
19.5, 51.095499, 0.862043
19.5, 54.5596, 0.819358
19.5, 58.023702, 0.781096
19.5, 61.487804, 0.747938
19.5, 64.951905, 0.720589
19.5, 68.416007, 0.699729
19.5, 71.880109, 0.685951
19.5, 75.34421, 0.679686
19.5, 78.808312, 0.681142
19.5, 82.272413, 0.690269
19.5, 85.736515, 0.70677
22.5, -85.736515, 1.251647
22.5, -82.272413, 1.179444
22.5, -78.808312, 1.10729
22.5, -75.34421, 1.035196
22.5, -71.880109, 0.963176
22.5, -68.416007, 0.891246
22.5, -64.951905, 0.819431
22.5, -61.487804, 0.747764
22.5, -58.023702, 0.676292
22.5, -54.5596, 0.605084
22.5, -51.095499, 0.534246
22.5, -47.631397, 0.463948
22.5, -44.167296, 0.394476
22.5, -40.703194, 0.326362
22.5, -37.239092, 0.260669
22.5, -33.774991, 0.199802
22.5, -30.310889, 0.149764
22.5, -26.846788, 0.124393
22.5, -23.382686, 0.138037
22.5, -19.918584, 0.182128
22.5, -16.454483, 0.240465
22.5, -12.990381, 0.304979
22.5, -9.526279, 0.372474
22.5, -6.062178, 0.441585
22.5, -2.598076, 0.511659
22.5, 0.866025, 0.582347
22.5, 4.330127, 0.65345
22.5, 7.794229, 0.724846
22.5, 11.25833, 0.796456
22.5, 14.722432, 0.868228
22.5, 18.186533, 0.940124
22.5, 21.650635, 1.012118
22.5, 25.114737, 1.08419
22.5, 28.578838, 1.156326
22.5, 32.04294, 1.189767
22.5, 35.507042, 1.133942
22.5, 38.971143, 1.080111
22.5, 42.435245, 1.028588
22.5, 45.899346, 0.979735
22.5, 49.363448, 0.933973
22.5, 52.82755, 0.891777
22.5, 56.291651, 0.853675
22.5, 59.755753, 0.82024
22.5, 63.219854, 0.792062
22.5, 66.683956, 0.769719
22.5, 70.148058, 0.753729
22.5, 73.612159, 0.744503
22.5, 77.076261, 0.742292
22.5, 80.540363, 0.747158
22.5, 84.004464, 0.758967
25.5, -84.004464, 1.210751
25.5, -80.540363, 1.138268
25.5, -77.076261, 1.065798
25.5, -73.612159, 0.993345
25.5, -70.148058, 0.920911
25.5, -66.683956, 0.848503
25.5, -63.219854, 0.776127
25.5, -59.755753, 0.703794
25.5, -56.291651, 0.631517
25.5, -52.82755, 0.559319
25.5, -49.363448, 0.487235
25.5, -45.899346, 0.415324
25.5, -42.435245, 0.343695
25.5, -38.971143, 0.27257
25.5, -35.507042, 0.202482
25.5, -32.04294, 0.135053
25.5, -28.578838, 0.077562
25.5, -25.114737, 0.06579
25.5, -21.650635, 0.114791
25.5, -18.186533, 0.180448
25.5, -14.722432, 0.249964
25.5, -11.25833, 0.320841
25.5, -7.794229, 0.392341
25.5, -4.330127, 0.464177
25.5, -0.866025, 0.536214
25.5, 2.598076, 0.60838
25.5, 6.062178, 0.680635
25.5, 9.526279, 0.752952
25.5, 12.990381, 0.825315
25.5, 16.454483, 0.897714
25.5, 19.918584, 0.97014
25.5, 23.382686, 1.042588
25.5, 26.846788, 1.115053
25.5, 30.310889, 1.187532
25.5, 33.774991, 1.202755
25.5, 37.239092, 1.149856
25.5, 40.703194, 1.099205
25.5, 44.167296, 1.051129
25.5, 47.631397, 1.005996
25.5, 51.095499, 0.96422
25.5, 54.5596, 0.926255
25.5, 58.023702, 0.892588
25.5, 61.487804, 0.863721
25.5, 64.951905, 0.840149
25.5, 68.416007, 0.822327
25.5, 71.880109, 0.810636
25.5, 75.34421, 0.805342
25.5, 78.808312, 0.806571
25.5, 82.272413, 0.814293
25.5, 85.736515, 0.828327
28.5, -85.736515, 1.245506
28.5, -82.272413, 1.172925
28.5, -78.808312, 1.100344
28.5, -75.34421, 1.027763
28.5, -71.880109, 0.955182
28.5, -68.416007, 0.882601
28.5, -64.951905, 0.81002
28.5, -61.487804, 0.737439
28.5, -58.023702, 0.664858
28.5, -54.5596, 0.592277
28.5, -51.095499, 0.519696
28.5, -47.631397, 0.447116
28.5, -44.167296, 0.374535
28.5, -40.703194, 0.301955
28.5, -37.239092, 0.229376
28.5, -33.774991, 0.156798
28.5, -30.310889, 0.084227
28.5, -26.846788, 0.011774
28.5, -23.382686, 0.060985
28.5, -19.918584, 0.133551
28.5, -16.454483, 0.206127
28.5, -12.990381, 0.278706
28.5, -9.526279, 0.351286
28.5, -6.062178, 0.423866
28.5, -2.598076, 0.496447
28.5, 0.866025, 0.569028
28.5, 4.330127, 0.641609
28.5, 7.794229, 0.714189
28.5, 11.25833, 0.78677
28.5, 14.722432, 0.859351
28.5, 18.186533, 0.931932
28.5, 21.650635, 1.004513
28.5, 25.114737, 1.077094
28.5, 28.578838, 1.149676
28.5, 32.04294, 1.222257
28.5, 35.507042, 1.219931
28.5, 38.971143, 1.170063
28.5, 42.435245, 1.122675
28.5, 45.899346, 1.078094
28.5, 49.363448, 1.036683
28.5, 52.82755, 0.998835
28.5, 56.291651, 0.96497
28.5, 59.755753, 0.935521
28.5, 63.219854, 0.910916
28.5, 66.683956, 0.891556
28.5, 70.148058, 0.877789
28.5, 73.612159, 0.869879
28.5, 77.076261, 0.867988
28.5, 80.540363, 0.872153
28.5, 84.004464, 0.88229
31.5, -84.004464, 1.210945
31.5, -80.540363, 1.138474
31.5, -77.076261, 1.066018
31.5, -73.612159, 0.993581
31.5, -70.148058, 0.921166
31.5, -66.683956, 0.84878
31.5, -63.219854, 0.776429
31.5, -59.755753, 0.704127
31.5, -56.291651, 0.631888
31.5, -52.82755, 0.559738
31.5, -49.363448, 0.487716
31.5, -45.899346, 0.415888
31.5, -42.435245, 0.344377
31.5, -38.971143, 0.27343
31.5, -35.507042, 0.203637
31.5, -32.04294, 0.136779
31.5, -28.578838, 0.080529
31.5, -25.114737, 0.069264
31.5, -21.650635, 0.116816
31.5, -18.186533, 0.181743
31.5, -14.722432, 0.250901
31.5, -11.25833, 0.321571
31.5, -7.794229, 0.392939
31.5, -4.330127, 0.464682
31.5, -0.866025, 0.536651
31.5, 2.598076, 0.608766
31.5, 6.062178, 0.680979
31.5, 9.526279, 0.753263
31.5, 12.990381, 0.8256
31.5, 16.454483, 0.897975
31.5, 19.918584, 0.970382
31.5, 23.382686, 1.042813
31.5, 26.846788, 1.115263
31.5, 30.310889, 1.187729
31.5, 33.774991, 1.260209
31.5, 37.239092, 1.24112
31.5, 40.703194, 1.194346
31.5, 44.167296, 1.150253
31.5, 47.631397, 1.109161
31.5, 51.095499, 1.071415
31.5, 54.5596, 1.037381
31.5, 58.023702, 1.007434
31.5, 61.487804, 0.981949
31.5, 64.951905, 0.96128
31.5, 68.416007, 0.945744
31.5, 71.880109, 0.935596
31.5, 75.34421, 0.931013
31.5, 78.808312, 0.932076
31.5, 82.272413, 0.938767
31.5, 85.736515, 0.950966
34.5, -85.736515, 1.252022
34.5, -82.272413, 1.179842
34.5, -78.808312, 1.107714
34.5, -75.34421, 1.03565
34.5, -71.880109, 0.963663
34.5, -68.416007, 0.891772
34.5, -64.951905, 0.820003
34.5, -61.487804, 0.748391
34.5, -58.023702, 0.676985
34.5, -54.5596, 0.605859
34.5, -51.095499, 0.535124
34.5, -47.631397, 0.464958
34.5, -44.167296, 0.395664
34.5, -40.703194, 0.327796
34.5, -37.239092, 0.262462
34.5, -33.774991, 0.202136
34.5, -30.310889, 0.152864
34.5, -26.846788, 0.128109
34.5, -23.382686, 0.141394
34.5, -19.918584, 0.184686
34.5, -16.454483, 0.242408
34.5, -12.990381, 0.306513
34.5, -9.526279, 0.373731
34.5, -6.062178, 0.442646
34.5, -2.598076, 0.512575
34.5, 0.866025, 0.583152
34.5, 4.330127, 0.654167
34.5, 7.794229, 0.725493
34.5, 11.25833, 0.797045
34.5, 14.722432, 0.868768
34.5, 18.186533, 0.940623
34.5, 21.650635, 1.012581
34.5, 25.114737, 1.084622
34.5, 28.578838, 1.156731
34.5, 32.04294, 1.228896
34.5, 35.507042, 1.301106
34.5, 38.971143, 1.26612
34.5, 42.435245, 1.222462
34.5, 45.899346, 1.181652
34.5, 49.363448, 1.143995
34.5, 52.82755, 1.109813
34.5, 56.291651, 1.079436
34.5, 59.755753, 1.053192
34.5, 63.219854, 1.031398
34.5, 66.683956, 1.014341
34.5, 70.148058, 1.002261
34.5, 73.612159, 0.995341
34.5, 77.076261, 0.993688
34.5, 80.540363, 0.997329
34.5, 84.004464, 1.006206
37.5, -84.004464, 1.224118
37.5, -80.540363, 1.152476
37.5, -77.076261, 1.080959
37.5, -73.612159, 1.009594
37.5, -70.148058, 0.938416
37.5, -66.683956, 0.86747
37.5, -63.219854, 0.796819
37.5, -59.755753, 0.726548
37.5, -56.291651, 0.65678
37.5, -52.82755, 0.587694
37.5, -49.363448, 0.519562
37.5, -45.899346, 0.452814
37.5, -42.435245, 0.388166
37.5, -38.971143, 0.326865
37.5, -35.507042, 0.271192
37.5, -32.04294, 0.225357
37.5, -28.578838, 0.196373
37.5, -25.114737, 0.192028
37.5, -21.650635, 0.21383
37.5, -18.186533, 0.255163
37.5, -14.722432, 0.308267
37.5, -11.25833, 0.368083
37.5, -7.794229, 0.431831
37.5, -4.330127, 0.498003
37.5, -0.866025, 0.565749
37.5, 2.598076, 0.634565
37.5, 6.062178, 0.704138
37.5, 9.526279, 0.774263
37.5, 12.990381, 0.844803
37.5, 16.454483, 0.915662
37.5, 19.918584, 0.986772
37.5, 23.382686, 1.058081
37.5, 26.846788, 1.129553
37.5, 30.310889, 1.201157
37.5, 33.774991, 1.272872
37.5, 37.239092, 1.337982
37.5, 40.703194, 1.294712
37.5, 44.167296, 1.254153
37.5, 47.631397, 1.216576
37.5, 51.095499, 1.182264
37.5, 54.5596, 1.151511
37.5, 58.023702, 1.124607
37.5, 61.487804, 1.101835
37.5, 64.951905, 1.083456
37.5, 68.416007, 1.069696
37.5, 71.880109, 1.060735
37.5, 75.34421, 1.056695
37.5, 78.808312, 1.057631
37.5, 82.272413, 1.063532
37.5, 85.736515, 1.074315
40.5, -85.736515, 1.271
40.5, -82.272413, 1.199962
40.5, -78.808312, 1.12912
40.5, -75.34421, 1.058514
40.5, -71.880109, 0.988194
40.5, -68.416007, 0.918226
40.5, -64.951905, 0.848697
40.5, -61.487804, 0.779725
40.5, -58.023702, 0.711471
40.5, -54.5596, 0.644164
40.5, -51.095499, 0.578134
40.5, -47.631397, 0.513875
40.5, -44.167296, 0.452141
40.5, -40.703194, 0.394121
40.5, -37.239092, 0.341713
40.5, -33.774991, 0.297893
40.5, -30.310889, 0.266924
40.5, -26.846788, 0.253561
40.5, -23.382686, 0.260526
40.5, -19.918584, 0.286339
40.5, -16.454483, 0.326562
40.5, -12.990381, 0.376605
40.5, -9.526279, 0.433078
40.5, -6.062178, 0.493779
40.5, -2.598076, 0.557328
40.5, 0.866025, 0.622854
40.5, 4.330127, 0.689794
40.5, 7.794229, 0.757774
40.5, 11.25833, 0.826536
40.5, 14.722432, 0.895901
40.5, 18.186533, 0.965739
40.5, 21.650635, 1.035954
40.5, 25.114737, 1.106475
40.5, 28.578838, 1.177246
40.5, 32.04294, 1.248225
40.5, 35.507042, 1.319378
40.5, 38.971143, 1.366998
40.5, 42.435245, 1.326663
40.5, 45.899346, 1.289156
40.5, 49.363448, 1.25473
40.5, 52.82755, 1.223645
40.5, 56.291651, 1.196162
40.5, 59.755753, 1.172534
40.5, 63.219854, 1.152998
40.5, 66.683956, 1.137765
40.5, 70.148058, 1.127009
40.5, 73.612159, 1.12086
40.5, 77.076261, 1.119392
40.5, 80.540363, 1.122625
40.5, 84.004464, 1.130519
43.5, -84.004464, 1.24986
43.5, -80.540363, 1.179782
43.5, -77.076261, 1.110026
43.5, -73.612159, 1.040656
43.5, -70.148058, 0.971756
43.5, -66.683956, 0.903432
43.5, -63.219854, 0.835826
43.5, -59.755753, 0.769128
43.5, -56.291651, 0.703595
43.5, -52.82755, 0.639585
43.5, -49.363448, 0.577607
43.5, -45.899346, 0.518388
43.5, -42.435245, 0.462988
43.5, -38.971143, 0.412948
43.5, -35.507042, 0.370447
43.5, -32.04294, 0.338336
43.5, -28.578838, 0.319762
43.5, -25.114737, 0.317112
43.5, -21.650635, 0.33077
43.5, -18.186533, 0.358878
43.5, -14.722432, 0.398389
43.5, -11.25833, 0.446286
43.5, -7.794229, 0.500164
43.5, -4.330127, 0.558294
43.5, -0.866025, 0.619481
43.5, 2.598076, 0.682904
43.5, 6.062178, 0.747994
43.5, 9.526279, 0.814351
43.5, 12.990381, 0.88169
43.5, 16.454483, 0.949801
43.5, 19.918584, 1.01853
43.5, 23.382686, 1.08776
43.5, 26.846788, 1.1574
43.5, 30.310889, 1.227381
43.5, 33.774991, 1.297648
43.5, 37.239092, 1.368156
43.5, 40.703194, 1.399181
43.5, 44.167296, 1.361736
43.5, 47.631397, 1.327209
43.5, 51.095499, 1.29583
43.5, 54.5596, 1.267834
43.5, 58.023702, 1.24345
43.5, 61.487804, 1.222893
43.5, 64.951905, 1.20636
43.5, 68.416007, 1.194017
43.5, 71.880109, 1.185995
43.5, 75.34421, 1.182383
43.5, 78.808312, 1.18322
43.5, 82.272413, 1.188498
43.5, 85.736515, 1.198157
46.5, -85.736515, 1.301895
46.5, -82.272413, 1.232638
46.5, -78.808312, 1.163787
46.5, -75.34421, 1.095418
46.5, -71.880109, 1.027627
46.5, -68.416007, 0.960535
46.5, -64.951905, 0.894302
46.5, -61.487804, 0.829132
46.5, -58.023702, 0.765297
46.5, -54.5596, 0.703162
46.5, -51.095499, 0.643217
46.5, -47.631397, 0.586137
46.5, -44.167296, 0.532842
46.5, -40.703194, 0.484583
46.5, -37.239092, 0.443009
46.5, -33.774991, 0.410158
46.5, -30.310889, 0.38825
46.5, -26.846788, 0.379187
46.5, -23.382686, 0.383879
46.5, -19.918584, 0.401845
46.5, -16.454483, 0.431431
46.5, -12.990381, 0.470448
46.5, -9.526279, 0.516765
46.5, -6.062178, 0.568601
46.5, -2.598076, 0.624583
46.5, 0.866025, 0.683693
46.5, 4.330127, 0.745188
46.5, 7.794229, 0.808524
46.5, 11.25833, 0.873299
46.5, 14.722432, 0.939217
46.5, 18.186533, 1.006053
46.5, 21.650635, 1.073635
46.5, 25.114737, 1.14183
46.5, 28.578838, 1.210536
46.5, 32.04294, 1.27967
46.5, 35.507042, 1.349166
46.5, 38.971143, 1.418971
46.5, 42.435245, 1.434317
46.5, 45.899346, 1.399698
46.5, 49.363448, 1.368056
46.5, 52.82755, 1.339604
46.5, 56.291651, 1.314547
46.5, 59.755753, 1.293084
46.5, 63.219854, 1.275396
46.5, 66.683956, 1.261642
46.5, 70.148058, 1.251951
46.5, 73.612159, 1.246418
46.5, 77.076261, 1.245098
46.5, 80.540363, 1.248006
46.5, 84.004464, 1.255111
49.5, -84.004464, 1.287418
49.5, -80.540363, 1.2195
49.5, -77.076261, 1.152151
49.5, -73.612159, 1.085477
49.5, -70.148058, 1.019609
49.5, -66.683956, 0.954716
49.5, -63.219854, 0.89101
49.5, -59.755753, 0.828765
49.5, -56.291651, 0.768335
49.5, -52.82755, 0.710185
49.5, -49.363448, 0.654922
49.5, -45.899346, 0.60334
49.5, -42.435245, 0.556464
49.5, -38.971143, 0.515577
49.5, -35.507042, 0.482208
49.5, -32.04294, 0.458001
49.5, -28.578838, 0.444456
49.5, -25.114737, 0.442554
49.5, -21.650635, 0.45244
49.5, -18.186533, 0.473378
49.5, -14.722432, 0.503992
49.5, -11.25833, 0.542646
49.5, -7.794229, 0.587756
49.5, -4.330127, 0.637955
49.5, -0.866025, 0.692135
49.5, 2.598076, 0.749434
49.5, 6.062178, 0.80919
49.5, 9.526279, 0.870897
49.5, 12.990381, 0.934169
49.5, 16.454483, 0.998707
49.5, 19.918584, 1.064283
49.5, 23.382686, 1.130714
49.5, 26.846788, 1.19786
49.5, 30.310889, 1.265606
49.5, 33.774991, 1.33386
49.5, 37.239092, 1.402549
49.5, 40.703194, 1.471612
49.5, 44.167296, 1.472196
49.5, 47.631397, 1.440318
49.5, 51.095499, 1.411456
49.5, 54.5596, 1.385798
49.5, 58.023702, 1.363525
49.5, 61.487804, 1.344806
49.5, 64.951905, 1.329789
49.5, 68.416007, 1.318602
49.5, 71.880109, 1.311343
49.5, 75.34421, 1.308077
49.5, 78.808312, 1.308833
49.5, 82.272413, 1.313606
49.5, 85.736515, 1.322352
52.5, -85.736515, 1.343885
52.5, -82.272413, 1.276908
52.5, -78.808312, 1.210578
52.5, -75.34421, 1.145006
52.5, -71.880109, 1.080331
52.5, -68.416007, 1.016723
52.5, -64.951905, 0.954397
52.5, -61.487804, 0.893621
52.5, -58.023702, 0.834732
52.5, -54.5596, 0.778161
52.5, -51.095499, 0.724449
52.5, -47.631397, 0.674281
52.5, -44.167296, 0.628505
52.5, -40.703194, 0.588149
52.5, -37.239092, 0.554396
52.5, -33.774991, 0.528514
52.5, -30.310889, 0.511699
52.5, -26.846788, 0.504857
52.5, -23.382686, 0.50839
52.5, -19.918584, 0.52209
52.5, -16.454483, 0.545188
52.5, -12.990381, 0.576558
52.5, -9.526279, 0.614934
52.5, -6.062178, 0.659094
52.5, -2.598076, 0.707956
52.5, 0.866025, 0.760614
52.5, 4.330127, 0.816335
52.5, 7.794229, 0.874533
52.5, 11.25833, 0.934746
52.5, 14.722432, 0.996607
52.5, 18.186533, 1.05983
52.5, 21.650635, 1.124184
52.5, 25.114737, 1.189485
52.5, 28.578838, 1.255586
52.5, 32.04294, 1.322366
52.5, 35.507042, 1.389729
52.5, 38.971143, 1.457593
52.5, 42.435245, 1.52589
52.5, 45.899346, 1.512611
52.5, 49.363448, 1.48338
52.5, 52.82755, 1.457181
52.5, 56.291651, 1.43418
52.5, 59.755753, 1.414534
52.5, 63.219854, 1.398382
52.5, 66.683956, 1.385849
52.5, 70.148058, 1.377033
52.5, 73.612159, 1.372004
52.5, 77.076261, 1.370806
52.5, 80.540363, 1.373447
52.5, 84.004464, 1.379906
55.5, -84.004464, 1.335794
55.5, -80.540363, 1.270465
55.5, -77.076261, 1.205966
55.5, -73.612159, 1.142437
55.5, -70.148058, 1.080049
55.5, -66.683956, 1.019012
55.5, -63.219854, 0.959584
55.5, -59.755753, 0.902082
55.5, -56.291651, 0.846901
55.5, -52.82755, 0.794522
55.5, -49.363448, 0.745537
55.5, -45.899346, 0.700658
55.5, -42.435245, 0.660722
55.5, -38.971143, 0.626675
55.5, -35.507042, 0.599522
55.5, -32.04294, 0.58023
55.5, -28.578838, 0.569599
55.5, -25.114737, 0.568116
55.5, -21.650635, 0.575851
55.5, -18.186533, 0.592443
55.5, -14.722432, 0.617179
55.5, -11.25833, 0.649127
55.5, -7.794229, 0.687284
55.5, -4.330127, 0.730676
55.5, -0.866025, 0.77843
55.5, 2.598076, 0.829791
55.5, 6.062178, 0.884133
55.5, 9.526279, 0.940938
55.5, 12.990381, 0.999786
55.5, 16.454483, 1.060339
55.5, 19.918584, 1.122319
55.5, 23.382686, 1.185503
55.5, 26.846788, 1.249708
55.5, 30.310889, 1.314785
55.5, 33.774991, 1.38061
55.5, 37.239092, 1.447082
55.5, 40.703194, 1.514115
55.5, 44.167296, 1.581638
55.5, 47.631397, 1.555365
55.5, 51.095499, 1.528676
55.5, 54.5596, 1.505018
55.5, 58.023702, 1.484535
55.5, 61.487804, 1.46736
55.5, 64.951905, 1.45361
55.5, 68.416007, 1.443383
55.5, 71.880109, 1.436754
55.5, 75.34421, 1.433774
55.5, 78.808312, 1.434464
55.5, 82.272413, 1.43882
55.5, 85.736515, 1.446809
58.5, -85.736515, 1.39597
58.5, -82.272413, 1.331616
58.5, -78.808312, 1.26815
58.5, -75.34421, 1.205713
58.5, -71.880109, 1.144474
58.5, -68.416007, 1.084634
58.5, -64.951905, 1.02644
58.5, -61.487804, 0.970187
58.5, -58.023702, 0.916233
58.5, -54.5596, 0.865009
58.5, -51.095499, 0.817026
58.5, -47.631397, 0.772891
58.5, -44.167296, 0.733297
58.5, -40.703194, 0.699017
58.5, -37.239092, 0.670866
58.5, -33.774991, 0.649641
58.5, -30.310889, 0.636036
58.5, -26.846788, 0.630544
58.5, -23.382686, 0.633377
58.5, -19.918584, 0.644425
58.5, -16.454483, 0.663277
58.5, -12.990381, 0.689293
58.5, -9.526279, 0.721699
58.5, -6.062178, 0.759678
58.5, -2.598076, 0.802438
58.5, 0.866025, 0.849259
58.5, 4.330127, 0.899505
58.5, 7.794229, 0.952635
58.5, 11.25833, 1.008194
58.5, 14.722432, 1.065801
58.5, 18.186533, 1.125142
58.5, 21.650635, 1.185957
58.5, 25.114737, 1.24803
58.5, 28.578838, 1.311183
58.5, 32.04294, 1.375267
58.5, 35.507042, 1.440157
58.5, 38.971143, 1.50575
58.5, 42.435245, 1.571957
58.5, 45.899346, 1.627402
58.5, 49.363448, 1.60027
58.5, 52.82755, 1.576015
58.5, 56.291651, 1.554773
58.5, 59.755753, 1.536669
58.5, 63.219854, 1.521815
58.5, 66.683956, 1.510306
58.5, 70.148058, 1.50222
58.5, 73.612159, 1.497612
58.5, 77.076261, 1.496514
58.5, 80.540363, 1.498934
58.5, 84.004464, 1.504855
61.5, -84.004464, 1.393864
61.5, -80.540363, 1.331387
61.5, -77.076261, 1.269986
61.5, -73.612159, 1.209823
61.5, -70.148058, 1.151093
61.5, -66.683956, 1.094027
61.5, -63.219854, 1.038899
61.5, -59.755753, 0.986034
61.5, -56.291651, 0.935816
61.5, -52.82755, 0.888693
61.5, -49.363448, 0.845183
61.5, -45.899346, 0.805873
61.5, -42.435245, 0.771404
61.5, -38.971143, 0.74245
61.5, -35.507042, 0.719678
61.5, -32.04294, 0.703688
61.5, -28.578838, 0.694948
61.5, -25.114737, 0.693733
61.5, -21.650635, 0.700081
61.5, -18.186533, 0.713792
61.5, -14.722432, 0.734452
61.5, -11.25833, 0.761496
61.5, -7.794229, 0.794272
61.5, -4.330127, 0.832104
61.5, -0.866025, 0.874335
61.5, 2.598076, 0.920361
61.5, 6.062178, 0.969639
61.5, 9.526279, 1.021701
61.5, 12.990381, 1.076142
61.5, 16.454483, 1.13262
61.5, 19.918584, 1.190844
61.5, 23.382686, 1.25057
61.5, 26.846788, 1.311594
61.5, 30.310889, 1.373743
61.5, 33.774991, 1.43687
61.5, 37.239092, 1.500852
61.5, 40.703194, 1.565584
61.5, 44.167296, 1.630977
61.5, 47.631397, 1.671948
61.5, 51.095499, 1.64715
61.5, 54.5596, 1.625217
61.5, 58.023702, 1.606267
61.5, 61.487804, 1.590407
61.5, 64.951905, 1.57773
61.5, 68.416007, 1.568313
61.5, 71.880109, 1.562214
61.5, 75.34421, 1.559474
61.5, 78.808312, 1.560108
61.5, 82.272413, 1.564115
61.5, 85.736515, 1.571467
64.5, -85.736515, 1.457068
64.5, -82.272413, 1.395534
64.5, -78.808312, 1.33511
64.5, -75.34421, 1.275954
64.5, -71.880109, 1.21825
64.5, -68.416007, 1.162216
64.5, -64.951905, 1.108104
64.5, -61.487804, 1.056209
64.5, -58.023702, 1.006875
64.5, -54.5596, 0.960497
64.5, -51.095499, 0.917522
64.5, -47.631397, 0.87845
64.5, -44.167296, 0.843824
64.5, -40.703194, 0.81421
64.5, -37.239092, 0.790174
64.5, -33.774991, 0.772235
64.5, -30.310889, 0.760826
64.5, -26.846788, 0.756241
64.5, -23.382686, 0.758604
64.5, -19.918584, 0.767852
64.5, -16.454483, 0.783741
64.5, -12.990381, 0.805878
64.5, -9.526279, 0.833765
64.5, -6.062178, 0.866847
64.5, -2.598076, 0.904556
64.5, 0.866025, 0.946337
64.5, 4.330127, 0.991677
64.5, 7.794229, 1.04011
64.5, 11.25833, 1.091224
64.5, 14.722432, 1.14466
64.5, 18.186533, 1.200108
64.5, 21.650635, 1.257302
64.5, 25.114737, 1.316014
64.5, 28.578838, 1.376051
64.5, 32.04294, 1.437245
64.5, 35.507042, 1.499455
64.5, 38.971143, 1.562561
64.5, 42.435245, 1.626457
64.5, 45.899346, 1.691054
64.5, 49.363448, 1.718406
64.5, 52.82755, 1.695841
64.5, 56.291651, 1.676119
64.5, 59.755753, 1.659339
64.5, 63.219854, 1.645593
64.5, 66.683956, 1.634956
64.5, 70.148058, 1.627489
64.5, 73.612159, 1.623237
64.5, 77.076261, 1.622224
64.5, 80.540363, 1.624456
64.5, 84.004464, 1.629921
67.5, -84.004464, 1.460471
67.5, -80.540363, 1.400967
67.5, -77.076261, 1.342751
67.5, -73.612159, 1.285997
67.5, -70.148058, 1.230907
67.5, -66.683956, 1.177715
67.5, -63.219854, 1.126689
67.5, -59.755753, 1.078138
67.5, -56.291651, 1.032409
67.5, -52.82755, 0.989895
67.5, -49.363448, 0.951027
67.5, -45.899346, 0.916269
67.5, -42.435245, 0.886105
67.5, -38.971143, 0.861017
67.5, -35.507042, 0.84146
67.5, -32.04294, 0.827825
67.5, -28.578838, 0.820409
67.5, -25.114737, 0.81938
67.5, -21.650635, 0.824762
67.5, -18.186533, 0.836431
67.5, -14.722432, 0.85413
67.5, -11.25833, 0.877493
67.5, -7.794229, 0.906083
67.5, -4.330127, 0.939423
67.5, -0.866025, 0.977026
67.5, 2.598076, 1.018421
67.5, 6.062178, 1.063164
67.5, 9.526279, 1.110852
67.5, 12.990381, 1.16112
67.5, 16.454483, 1.21365
67.5, 19.918584, 1.268159
67.5, 23.382686, 1.324403
67.5, 26.846788, 1.382171
67.5, 30.310889, 1.44128
67.5, 33.774991, 1.50157
67.5, 37.239092, 1.562906
67.5, 40.703194, 1.625168
67.5, 44.167296, 1.688255
67.5, 47.631397, 1.752077
67.5, 51.095499, 1.766624
67.5, 54.5596, 1.746193
67.5, 58.023702, 1.72857
67.5, 61.487804, 1.713842
67.5, 64.951905, 1.702084
67.5, 68.416007, 1.693359
67.5, 71.880109, 1.687712
67.5, 75.34421, 1.685176
67.5, 78.808312, 1.685763
67.5, 82.272413, 1.689471
67.5, 85.736515, 1.69628
70.5, -85.736515, 1.526096
70.5, -82.272413, 1.467459
70.5, -78.808312, 1.410121
70.5, -75.34421, 1.354245
70.5, -71.880109, 1.300022
70.5, -68.416007, 1.247665
70.5, -64.951905, 1.197421
70.5, -61.487804, 1.149565
70.5, -58.023702, 1.104409
70.5, -54.5596, 1.062297
70.5, -51.095499, 1.023605
70.5, -47.631397, 0.988735
70.5, -44.167296, 0.958103
70.5, -40.703194, 0.932127
70.5, -37.239092, 0.911206
70.5, -33.774991, 0.895695
70.5, -30.310889, 0.885877
70.5, -26.846788, 0.881942
70.5, -23.382686, 0.88397
70.5, -19.918584, 0.891919
70.5, -16.454483, 0.905634
70.5, -12.990381, 0.924857
70.5, -9.526279, 0.949255
70.5, -6.062178, 0.978441
70.5, -2.598076, 1.012
70.5, 0.866025, 1.049512
70.5, 4.330127, 1.090571
70.5, 7.794229, 1.134791
70.5, 11.25833, 1.181817
70.5, 14.722432, 1.231328
70.5, 18.186533, 1.283036
70.5, 21.650635, 1.336687
70.5, 25.114737, 1.392055
70.5, 28.578838, 1.448944
70.5, 32.04294, 1.507181
70.5, 35.507042, 1.566617
70.5, 38.971143, 1.62712
70.5, 42.435245, 1.688574
70.5, 45.899346, 1.750881
70.5, 49.363448, 1.813952
70.5, 52.82755, 1.816464
70.5, 56.291651, 1.798065
70.5, 59.755753, 1.782434
70.5, 63.219854, 1.769644
70.5, 66.683956, 1.759756
70.5, 70.148058, 1.752821
70.5, 73.612159, 1.748874
70.5, 77.076261, 1.747934
70.5, 80.540363, 1.750006
70.5, 84.004464, 1.75508
73.5, -84.004464, 1.534503
73.5, -80.540363, 1.477984
73.5, -77.076261, 1.422922
73.5, -73.612159, 1.369495
73.5, -70.148058, 1.3179
73.5, -66.683956, 1.268361
73.5, -63.219854, 1.221129
73.5, -59.755753, 1.176481
73.5, -56.291651, 1.134722
73.5, -52.82755, 1.096184
73.5, -49.363448, 1.061216
73.5, -45.899346, 1.030182
73.5, -42.435245, 1.003448
73.5, -38.971143, 0.981364
73.5, -35.507042, 0.964251
73.5, -32.04294, 0.952376
73.5, -28.578838, 0.945937
73.5, -25.114737, 0.945045
73.5, -21.650635, 0.949715
73.5, -18.186533, 0.959866
73.5, -14.722432, 0.975327
73.5, -11.25833, 0.995852
73.5, -7.794229, 1.021133
73.5, -4.330127, 1.050829
73.5, -0.866025, 1.084577
73.5, 2.598076, 1.122011
73.5, 6.062178, 1.162775
73.5, 9.526279, 1.206531
73.5, 12.990381, 1.252967
73.5, 16.454483, 1.301796
73.5, 19.918584, 1.352758
73.5, 23.382686, 1.405621
73.5, 26.846788, 1.460179
73.5, 30.310889, 1.51625
73.5, 33.774991, 1.57367
73.5, 37.239092, 1.632299
73.5, 40.703194, 1.69201
73.5, 44.167296, 1.752693
73.5, 47.631397, 1.814249
73.5, 51.095499, 1.876594
73.5, 54.5596, 1.867795
73.5, 58.023702, 1.85133
73.5, 61.487804, 1.837586
73.5, 64.951905, 1.826625
73.5, 68.416007, 1.818497
73.5, 71.880109, 1.81324
73.5, 75.34421, 1.810879
73.5, 78.808312, 1.811426
73.5, 82.272413, 1.814878
73.5, 85.736515, 1.821218
