Name,torus
-3,-5
-2,-5
-1,-5
0,-5
1,-5
2,-5
-4,-4
-3,-4
-2,-4
-1,-4
0,-4
1,-4
2,-4
3,-4
-5,-3
-4,-3
-3,-3
-2,-3
-1,-3
0,-3
1,-3
2,-3
3,-3
4,-3
-5,-2
-4,-2
-3,-2
-2,-2
1,-2
2,-2
3,-2
4,-2
-6,-1
-5,-1
-4,-1
-3,-1
2,-1
3,-1
4,-1
5,-1
-6,0
-5,0
-4,0
-3,0
2,0
3,0
4,0
5,0
-6,1
-5,1
-4,1
-3,1
2,1
3,1
4,1
-5,2
-4,2
-3,2
-2,2
1,2
2,2
3,2
4,2
-5,3
-4,3
-3,3
-2,3
-1,3
0,3
1,3
2,3
3,3
4,3
-4,4
-3,4
-2,4
-1,4
0,4
1,4
2,4
3,4
-3,5
-2,5
-1,5
0,5
1,5
